%YAML 1.1
%TAG !u! tag:unity3d.com,2011:
--- !u!687078895 &4343727234628468602
SpriteAtlas:
  m_ObjectHideFlags: 0
  m_CorrespondingSourceObject: {fileID: 0}
  m_PrefabInstance: {fileID: 0}
  m_PrefabAsset: {fileID: 0}
  m_Name: New Sprite Atlas
  m_EditorData:
    serializedVersion: 2
    textureSettings:
      serializedVersion: 2
      anisoLevel: 1
      compressionQuality: 50
      maxTextureSize: 2048
      textureCompression: 0
      filterMode: 1
      generateMipMaps: 0
      readable: 0
      crunchedCompression: 0
      sRGB: 1
    platformSettings: []
    packingSettings:
      serializedVersion: 2
      padding: 4
      blockOffset: 1
      allowAlphaSplitting: 0
      enableRotation: 1
      enableTightPacking: 1
    variantMultiplier: 1
    packables:
    - {fileID: 2800000, guid: d21555ce72e390f49ba41fd54c373b1b, type: 3}
    totalSpriteSurfaceArea: 244992
    bindAsDefault: 1
  m_MasterAtlas: {fileID: 0}
  m_PackedSprites:
  - {fileID: 21300842, guid: d21555ce72e390f49ba41fd54c373b1b, type: 3}
  - {fileID: 21300870, guid: d21555ce72e390f49ba41fd54c373b1b, type: 3}
  - {fileID: 21300046, guid: d21555ce72e390f49ba41fd54c373b1b, type: 3}
  - {fileID: 21300066, guid: d21555ce72e390f49ba41fd54c373b1b, type: 3}
  - {fileID: 21301514, guid: d21555ce72e390f49ba41fd54c373b1b, type: 3}
  - {fileID: 21301574, guid: d21555ce72e390f49ba41fd54c373b1b, type: 3}
  - {fileID: 21300844, guid: d21555ce72e390f49ba41fd54c373b1b, type: 3}
  - {fileID: 21300868, guid: d21555ce72e390f49ba41fd54c373b1b, type: 3}
  - {fileID: 21300064, guid: d21555ce72e390f49ba41fd54c373b1b, type: 3}
  - {fileID: 21301508, guid: d21555ce72e390f49ba41fd54c373b1b, type: 3}
  - {fileID: 21301572, guid: d21555ce72e390f49ba41fd54c373b1b, type: 3}
  - {fileID: 21300846, guid: d21555ce72e390f49ba41fd54c373b1b, type: 3}
  - {fileID: 21300866, guid: d21555ce72e390f49ba41fd54c373b1b, type: 3}
  - {fileID: 21300062, guid: d21555ce72e390f49ba41fd54c373b1b, type: 3}
  - {fileID: 21301510, guid: d21555ce72e390f49ba41fd54c373b1b, type: 3}
  - {fileID: 21301622, guid: d21555ce72e390f49ba41fd54c373b1b, type: 3}
  - {fileID: 21301578, guid: d21555ce72e390f49ba41fd54c373b1b, type: 3}
  - {fileID: 21301818, guid: d21555ce72e390f49ba41fd54c373b1b, type: 3}
  - {fileID: 21300864, guid: d21555ce72e390f49ba41fd54c373b1b, type: 3}
  - {fileID: 21300060, guid: d21555ce72e390f49ba41fd54c373b1b, type: 3}
  - {fileID: 21301620, guid: d21555ce72e390f49ba41fd54c373b1b, type: 3}
  - {fileID: 21301576, guid: d21555ce72e390f49ba41fd54c373b1b, type: 3}
  - {fileID: 21301816, guid: d21555ce72e390f49ba41fd54c373b1b, type: 3}
  - {fileID: 21300862, guid: d21555ce72e390f49ba41fd54c373b1b, type: 3}
  - {fileID: 21301626, guid: d21555ce72e390f49ba41fd54c373b1b, type: 3}
  - {fileID: 21300860, guid: d21555ce72e390f49ba41fd54c373b1b, type: 3}
  - {fileID: 21301516, guid: d21555ce72e390f49ba41fd54c373b1b, type: 3}
  - {fileID: 21301624, guid: d21555ce72e390f49ba41fd54c373b1b, type: 3}
  - {fileID: 21301728, guid: d21555ce72e390f49ba41fd54c373b1b, type: 3}
  - {fileID: 21301518, guid: d21555ce72e390f49ba41fd54c373b1b, type: 3}
  - {fileID: 21301630, guid: d21555ce72e390f49ba41fd54c373b1b, type: 3}
  - {fileID: 21301730, guid: d21555ce72e390f49ba41fd54c373b1b, type: 3}
  - {fileID: 21300300, guid: d21555ce72e390f49ba41fd54c373b1b, type: 3}
  - {fileID: 21301628, guid: d21555ce72e390f49ba41fd54c373b1b, type: 3}
  - {fileID: 21301732, guid: d21555ce72e390f49ba41fd54c373b1b, type: 3}
  - {fileID: 21300302, guid: d21555ce72e390f49ba41fd54c373b1b, type: 3}
  - {fileID: 21301634, guid: d21555ce72e390f49ba41fd54c373b1b, type: 3}
  - {fileID: 21301734, guid: d21555ce72e390f49ba41fd54c373b1b, type: 3}
  - {fileID: 21301754, guid: d21555ce72e390f49ba41fd54c373b1b, type: 3}
  - {fileID: 21300304, guid: d21555ce72e390f49ba41fd54c373b1b, type: 3}
  - {fileID: 21300264, guid: d21555ce72e390f49ba41fd54c373b1b, type: 3}
  - {fileID: 21301556, guid: d21555ce72e390f49ba41fd54c373b1b, type: 3}
  - {fileID: 21301632, guid: d21555ce72e390f49ba41fd54c373b1b, type: 3}
  - {fileID: 21301720, guid: d21555ce72e390f49ba41fd54c373b1b, type: 3}
  - {fileID: 21301752, guid: d21555ce72e390f49ba41fd54c373b1b, type: 3}
  - {fileID: 21300306, guid: d21555ce72e390f49ba41fd54c373b1b, type: 3}
  - {fileID: 21300266, guid: d21555ce72e390f49ba41fd54c373b1b, type: 3}
  - {fileID: 21301558, guid: d21555ce72e390f49ba41fd54c373b1b, type: 3}
  - {fileID: 21301638, guid: d21555ce72e390f49ba41fd54c373b1b, type: 3}
  - {fileID: 21301722, guid: d21555ce72e390f49ba41fd54c373b1b, type: 3}
  - {fileID: 21301750, guid: d21555ce72e390f49ba41fd54c373b1b, type: 3}
  - {fileID: 21300308, guid: d21555ce72e390f49ba41fd54c373b1b, type: 3}
  - {fileID: 21300260, guid: d21555ce72e390f49ba41fd54c373b1b, type: 3}
  - {fileID: 21300388, guid: d21555ce72e390f49ba41fd54c373b1b, type: 3}
  - {fileID: 21301636, guid: d21555ce72e390f49ba41fd54c373b1b, type: 3}
  - {fileID: 21301724, guid: d21555ce72e390f49ba41fd54c373b1b, type: 3}
  - {fileID: 21301748, guid: d21555ce72e390f49ba41fd54c373b1b, type: 3}
  - {fileID: 21300310, guid: d21555ce72e390f49ba41fd54c373b1b, type: 3}
  - {fileID: 21300262, guid: d21555ce72e390f49ba41fd54c373b1b, type: 3}
  - {fileID: 21300250, guid: d21555ce72e390f49ba41fd54c373b1b, type: 3}
  - {fileID: 21300390, guid: d21555ce72e390f49ba41fd54c373b1b, type: 3}
  - {fileID: 21301726, guid: d21555ce72e390f49ba41fd54c373b1b, type: 3}
  - {fileID: 21301746, guid: d21555ce72e390f49ba41fd54c373b1b, type: 3}
  - {fileID: 21301200, guid: d21555ce72e390f49ba41fd54c373b1b, type: 3}
  - {fileID: 21300312, guid: d21555ce72e390f49ba41fd54c373b1b, type: 3}
  - {fileID: 21300272, guid: d21555ce72e390f49ba41fd54c373b1b, type: 3}
  - {fileID: 21300248, guid: d21555ce72e390f49ba41fd54c373b1b, type: 3}
  - {fileID: 21300392, guid: d21555ce72e390f49ba41fd54c373b1b, type: 3}
  - {fileID: 21301548, guid: d21555ce72e390f49ba41fd54c373b1b, type: 3}
  - {fileID: 21301744, guid: d21555ce72e390f49ba41fd54c373b1b, type: 3}
  - {fileID: 21301696, guid: d21555ce72e390f49ba41fd54c373b1b, type: 3}
  - {fileID: 21301202, guid: d21555ce72e390f49ba41fd54c373b1b, type: 3}
  - {fileID: 21300314, guid: d21555ce72e390f49ba41fd54c373b1b, type: 3}
  - {fileID: 21300274, guid: d21555ce72e390f49ba41fd54c373b1b, type: 3}
  - {fileID: 21300254, guid: d21555ce72e390f49ba41fd54c373b1b, type: 3}
  - {fileID: 21300394, guid: d21555ce72e390f49ba41fd54c373b1b, type: 3}
  - {fileID: 21300374, guid: d21555ce72e390f49ba41fd54c373b1b, type: 3}
  - {fileID: 21301550, guid: d21555ce72e390f49ba41fd54c373b1b, type: 3}
  - {fileID: 21301538, guid: d21555ce72e390f49ba41fd54c373b1b, type: 3}
  - {fileID: 21301742, guid: d21555ce72e390f49ba41fd54c373b1b, type: 3}
  - {fileID: 21301698, guid: d21555ce72e390f49ba41fd54c373b1b, type: 3}
  - {fileID: 21301204, guid: d21555ce72e390f49ba41fd54c373b1b, type: 3}
  - {fileID: 21301324, guid: d21555ce72e390f49ba41fd54c373b1b, type: 3}
  - {fileID: 21300316, guid: d21555ce72e390f49ba41fd54c373b1b, type: 3}
  - {fileID: 21300268, guid: d21555ce72e390f49ba41fd54c373b1b, type: 3}
  - {fileID: 21300252, guid: d21555ce72e390f49ba41fd54c373b1b, type: 3}
  - {fileID: 21300380, guid: d21555ce72e390f49ba41fd54c373b1b, type: 3}
  - {fileID: 21300372, guid: d21555ce72e390f49ba41fd54c373b1b, type: 3}
  - {fileID: 21301552, guid: d21555ce72e390f49ba41fd54c373b1b, type: 3}
  - {fileID: 21301536, guid: d21555ce72e390f49ba41fd54c373b1b, type: 3}
  - {fileID: 21301740, guid: d21555ce72e390f49ba41fd54c373b1b, type: 3}
  - {fileID: 21301206, guid: d21555ce72e390f49ba41fd54c373b1b, type: 3}
  - {fileID: 21301326, guid: d21555ce72e390f49ba41fd54c373b1b, type: 3}
  - {fileID: 21300318, guid: d21555ce72e390f49ba41fd54c373b1b, type: 3}
  - {fileID: 21300270, guid: d21555ce72e390f49ba41fd54c373b1b, type: 3}
  - {fileID: 21300242, guid: d21555ce72e390f49ba41fd54c373b1b, type: 3}
  - {fileID: 21300382, guid: d21555ce72e390f49ba41fd54c373b1b, type: 3}
  - {fileID: 21300370, guid: d21555ce72e390f49ba41fd54c373b1b, type: 3}
  - {fileID: 21301554, guid: d21555ce72e390f49ba41fd54c373b1b, type: 3}
  - {fileID: 21301534, guid: d21555ce72e390f49ba41fd54c373b1b, type: 3}
  - {fileID: 21301208, guid: d21555ce72e390f49ba41fd54c373b1b, type: 3}
  - {fileID: 21301320, guid: d21555ce72e390f49ba41fd54c373b1b, type: 3}
  - {fileID: 21300240, guid: d21555ce72e390f49ba41fd54c373b1b, type: 3}
  - {fileID: 21300384, guid: d21555ce72e390f49ba41fd54c373b1b, type: 3}
  - {fileID: 21300368, guid: d21555ce72e390f49ba41fd54c373b1b, type: 3}
  - {fileID: 21301540, guid: d21555ce72e390f49ba41fd54c373b1b, type: 3}
  - {fileID: 21301532, guid: d21555ce72e390f49ba41fd54c373b1b, type: 3}
  - {fileID: 21301736, guid: d21555ce72e390f49ba41fd54c373b1b, type: 3}
  - {fileID: 21301210, guid: d21555ce72e390f49ba41fd54c373b1b, type: 3}
  - {fileID: 21301322, guid: d21555ce72e390f49ba41fd54c373b1b, type: 3}
  - {fileID: 21301350, guid: d21555ce72e390f49ba41fd54c373b1b, type: 3}
  - {fileID: 21300246, guid: d21555ce72e390f49ba41fd54c373b1b, type: 3}
  - {fileID: 21300386, guid: d21555ce72e390f49ba41fd54c373b1b, type: 3}
  - {fileID: 21300366, guid: d21555ce72e390f49ba41fd54c373b1b, type: 3}
  - {fileID: 21301542, guid: d21555ce72e390f49ba41fd54c373b1b, type: 3}
  - {fileID: 21301530, guid: d21555ce72e390f49ba41fd54c373b1b, type: 3}
  - {fileID: 21301738, guid: d21555ce72e390f49ba41fd54c373b1b, type: 3}
  - {fileID: 21301212, guid: d21555ce72e390f49ba41fd54c373b1b, type: 3}
  - {fileID: 21301332, guid: d21555ce72e390f49ba41fd54c373b1b, type: 3}
  - {fileID: 21301348, guid: d21555ce72e390f49ba41fd54c373b1b, type: 3}
  - {fileID: 21300276, guid: d21555ce72e390f49ba41fd54c373b1b, type: 3}
  - {fileID: 21300244, guid: d21555ce72e390f49ba41fd54c373b1b, type: 3}
  - {fileID: 21300364, guid: d21555ce72e390f49ba41fd54c373b1b, type: 3}
  - {fileID: 21301544, guid: d21555ce72e390f49ba41fd54c373b1b, type: 3}
  - {fileID: 21301528, guid: d21555ce72e390f49ba41fd54c373b1b, type: 3}
  - {fileID: 21301684, guid: d21555ce72e390f49ba41fd54c373b1b, type: 3}
  - {fileID: 21301214, guid: d21555ce72e390f49ba41fd54c373b1b, type: 3}
  - {fileID: 21301334, guid: d21555ce72e390f49ba41fd54c373b1b, type: 3}
  - {fileID: 21301354, guid: d21555ce72e390f49ba41fd54c373b1b, type: 3}
  - {fileID: 21300278, guid: d21555ce72e390f49ba41fd54c373b1b, type: 3}
  - {fileID: 21300362, guid: d21555ce72e390f49ba41fd54c373b1b, type: 3}
  - {fileID: 21301546, guid: d21555ce72e390f49ba41fd54c373b1b, type: 3}
  - {fileID: 21301526, guid: d21555ce72e390f49ba41fd54c373b1b, type: 3}
  - {fileID: 21301686, guid: d21555ce72e390f49ba41fd54c373b1b, type: 3}
  - {fileID: 21301216, guid: d21555ce72e390f49ba41fd54c373b1b, type: 3}
  - {fileID: 21301328, guid: d21555ce72e390f49ba41fd54c373b1b, type: 3}
  - {fileID: 21301352, guid: d21555ce72e390f49ba41fd54c373b1b, type: 3}
  - {fileID: 21300360, guid: d21555ce72e390f49ba41fd54c373b1b, type: 3}
  - {fileID: 21301524, guid: d21555ce72e390f49ba41fd54c373b1b, type: 3}
  - {fileID: 21301680, guid: d21555ce72e390f49ba41fd54c373b1b, type: 3}
  - {fileID: 21301218, guid: d21555ce72e390f49ba41fd54c373b1b, type: 3}
  - {fileID: 21301330, guid: d21555ce72e390f49ba41fd54c373b1b, type: 3}
  - {fileID: 21301342, guid: d21555ce72e390f49ba41fd54c373b1b, type: 3}
  - {fileID: 21301522, guid: d21555ce72e390f49ba41fd54c373b1b, type: 3}
  - {fileID: 21301758, guid: d21555ce72e390f49ba41fd54c373b1b, type: 3}
  - {fileID: 21301682, guid: d21555ce72e390f49ba41fd54c373b1b, type: 3}
  - {fileID: 21301340, guid: d21555ce72e390f49ba41fd54c373b1b, type: 3}
  - {fileID: 21300396, guid: d21555ce72e390f49ba41fd54c373b1b, type: 3}
  - {fileID: 21301520, guid: d21555ce72e390f49ba41fd54c373b1b, type: 3}
  - {fileID: 21301756, guid: d21555ce72e390f49ba41fd54c373b1b, type: 3}
  - {fileID: 21301692, guid: d21555ce72e390f49ba41fd54c373b1b, type: 3}
  - {fileID: 21301346, guid: d21555ce72e390f49ba41fd54c373b1b, type: 3}
  - {fileID: 21300258, guid: d21555ce72e390f49ba41fd54c373b1b, type: 3}
  - {fileID: 21300398, guid: d21555ce72e390f49ba41fd54c373b1b, type: 3}
  - {fileID: 21301694, guid: d21555ce72e390f49ba41fd54c373b1b, type: 3}
  - {fileID: 21301336, guid: d21555ce72e390f49ba41fd54c373b1b, type: 3}
  - {fileID: 21301344, guid: d21555ce72e390f49ba41fd54c373b1b, type: 3}
  - {fileID: 21300256, guid: d21555ce72e390f49ba41fd54c373b1b, type: 3}
  - {fileID: 21301688, guid: d21555ce72e390f49ba41fd54c373b1b, type: 3}
  - {fileID: 21301338, guid: d21555ce72e390f49ba41fd54c373b1b, type: 3}
  - {fileID: 21301690, guid: d21555ce72e390f49ba41fd54c373b1b, type: 3}
  - {fileID: 21300218, guid: d21555ce72e390f49ba41fd54c373b1b, type: 3}
  - {fileID: 21300378, guid: d21555ce72e390f49ba41fd54c373b1b, type: 3}
  - {fileID: 21300216, guid: d21555ce72e390f49ba41fd54c373b1b, type: 3}
  - {fileID: 21300376, guid: d21555ce72e390f49ba41fd54c373b1b, type: 3}
  - {fileID: 21301358, guid: d21555ce72e390f49ba41fd54c373b1b, type: 3}
  - {fileID: 21300214, guid: d21555ce72e390f49ba41fd54c373b1b, type: 3}
  - {fileID: 21301356, guid: d21555ce72e390f49ba41fd54c373b1b, type: 3}
  - {fileID: 21300212, guid: d21555ce72e390f49ba41fd54c373b1b, type: 3}
  - {fileID: 21300210, guid: d21555ce72e390f49ba41fd54c373b1b, type: 3}
  - {fileID: 21300208, guid: d21555ce72e390f49ba41fd54c373b1b, type: 3}
  - {fileID: 21301318, guid: d21555ce72e390f49ba41fd54c373b1b, type: 3}
  - {fileID: 21300206, guid: d21555ce72e390f49ba41fd54c373b1b, type: 3}
  - {fileID: 21301316, guid: d21555ce72e390f49ba41fd54c373b1b, type: 3}
  - {fileID: 21300204, guid: d21555ce72e390f49ba41fd54c373b1b, type: 3}
  - {fileID: 21301314, guid: d21555ce72e390f49ba41fd54c373b1b, type: 3}
  - {fileID: 21300202, guid: d21555ce72e390f49ba41fd54c373b1b, type: 3}
  - {fileID: 21301312, guid: d21555ce72e390f49ba41fd54c373b1b, type: 3}
  - {fileID: 21300200, guid: d21555ce72e390f49ba41fd54c373b1b, type: 3}
  - {fileID: 21301310, guid: d21555ce72e390f49ba41fd54c373b1b, type: 3}
  - {fileID: 21301308, guid: d21555ce72e390f49ba41fd54c373b1b, type: 3}
  - {fileID: 21301306, guid: d21555ce72e390f49ba41fd54c373b1b, type: 3}
  - {fileID: 21301304, guid: d21555ce72e390f49ba41fd54c373b1b, type: 3}
  - {fileID: 21301302, guid: d21555ce72e390f49ba41fd54c373b1b, type: 3}
  - {fileID: 21301300, guid: d21555ce72e390f49ba41fd54c373b1b, type: 3}
  - {fileID: 21300682, guid: d21555ce72e390f49ba41fd54c373b1b, type: 3}
  - {fileID: 21300784, guid: d21555ce72e390f49ba41fd54c373b1b, type: 3}
  - {fileID: 21300680, guid: d21555ce72e390f49ba41fd54c373b1b, type: 3}
  - {fileID: 21300786, guid: d21555ce72e390f49ba41fd54c373b1b, type: 3}
  - {fileID: 21300686, guid: d21555ce72e390f49ba41fd54c373b1b, type: 3}
  - {fileID: 21300780, guid: d21555ce72e390f49ba41fd54c373b1b, type: 3}
  - {fileID: 21300684, guid: d21555ce72e390f49ba41fd54c373b1b, type: 3}
  - {fileID: 21300668, guid: d21555ce72e390f49ba41fd54c373b1b, type: 3}
  - {fileID: 21300782, guid: d21555ce72e390f49ba41fd54c373b1b, type: 3}
  - {fileID: 21300690, guid: d21555ce72e390f49ba41fd54c373b1b, type: 3}
  - {fileID: 21300670, guid: d21555ce72e390f49ba41fd54c373b1b, type: 3}
  - {fileID: 21300792, guid: d21555ce72e390f49ba41fd54c373b1b, type: 3}
  - {fileID: 21300688, guid: d21555ce72e390f49ba41fd54c373b1b, type: 3}
  - {fileID: 21300672, guid: d21555ce72e390f49ba41fd54c373b1b, type: 3}
  - {fileID: 21300794, guid: d21555ce72e390f49ba41fd54c373b1b, type: 3}
  - {fileID: 21300694, guid: d21555ce72e390f49ba41fd54c373b1b, type: 3}
  - {fileID: 21300674, guid: d21555ce72e390f49ba41fd54c373b1b, type: 3}
  - {fileID: 21300654, guid: d21555ce72e390f49ba41fd54c373b1b, type: 3}
  - {fileID: 21300788, guid: d21555ce72e390f49ba41fd54c373b1b, type: 3}
  - {fileID: 21300692, guid: d21555ce72e390f49ba41fd54c373b1b, type: 3}
  - {fileID: 21300660, guid: d21555ce72e390f49ba41fd54c373b1b, type: 3}
  - {fileID: 21300652, guid: d21555ce72e390f49ba41fd54c373b1b, type: 3}
  - {fileID: 21300790, guid: d21555ce72e390f49ba41fd54c373b1b, type: 3}
  - {fileID: 21300698, guid: d21555ce72e390f49ba41fd54c373b1b, type: 3}
  - {fileID: 21300662, guid: d21555ce72e390f49ba41fd54c373b1b, type: 3}
  - {fileID: 21300650, guid: d21555ce72e390f49ba41fd54c373b1b, type: 3}
  - {fileID: 21300696, guid: d21555ce72e390f49ba41fd54c373b1b, type: 3}
  - {fileID: 21300664, guid: d21555ce72e390f49ba41fd54c373b1b, type: 3}
  - {fileID: 21300648, guid: d21555ce72e390f49ba41fd54c373b1b, type: 3}
  - {fileID: 21300666, guid: d21555ce72e390f49ba41fd54c373b1b, type: 3}
  - {fileID: 21300646, guid: d21555ce72e390f49ba41fd54c373b1b, type: 3}
  - {fileID: 21300796, guid: d21555ce72e390f49ba41fd54c373b1b, type: 3}
  - {fileID: 21300644, guid: d21555ce72e390f49ba41fd54c373b1b, type: 3}
  - {fileID: 21300798, guid: d21555ce72e390f49ba41fd54c373b1b, type: 3}
  - {fileID: 21300642, guid: d21555ce72e390f49ba41fd54c373b1b, type: 3}
  - {fileID: 21300640, guid: d21555ce72e390f49ba41fd54c373b1b, type: 3}
  - {fileID: 21300676, guid: d21555ce72e390f49ba41fd54c373b1b, type: 3}
  - {fileID: 21300678, guid: d21555ce72e390f49ba41fd54c373b1b, type: 3}
  - {fileID: 21300542, guid: d21555ce72e390f49ba41fd54c373b1b, type: 3}
  - {fileID: 21300658, guid: d21555ce72e390f49ba41fd54c373b1b, type: 3}
  - {fileID: 21300540, guid: d21555ce72e390f49ba41fd54c373b1b, type: 3}
  - {fileID: 21300656, guid: d21555ce72e390f49ba41fd54c373b1b, type: 3}
  - {fileID: 21300546, guid: d21555ce72e390f49ba41fd54c373b1b, type: 3}
  - {fileID: 21300544, guid: d21555ce72e390f49ba41fd54c373b1b, type: 3}
  - {fileID: 21300408, guid: d21555ce72e390f49ba41fd54c373b1b, type: 3}
  - {fileID: 21300550, guid: d21555ce72e390f49ba41fd54c373b1b, type: 3}
  - {fileID: 21300410, guid: d21555ce72e390f49ba41fd54c373b1b, type: 3}
  - {fileID: 21300548, guid: d21555ce72e390f49ba41fd54c373b1b, type: 3}
  - {fileID: 21300412, guid: d21555ce72e390f49ba41fd54c373b1b, type: 3}
  - {fileID: 21300554, guid: d21555ce72e390f49ba41fd54c373b1b, type: 3}
  - {fileID: 21300414, guid: d21555ce72e390f49ba41fd54c373b1b, type: 3}
  - {fileID: 21300434, guid: d21555ce72e390f49ba41fd54c373b1b, type: 3}
  - {fileID: 21300552, guid: d21555ce72e390f49ba41fd54c373b1b, type: 3}
  - {fileID: 21300400, guid: d21555ce72e390f49ba41fd54c373b1b, type: 3}
  - {fileID: 21300432, guid: d21555ce72e390f49ba41fd54c373b1b, type: 3}
  - {fileID: 21300558, guid: d21555ce72e390f49ba41fd54c373b1b, type: 3}
  - {fileID: 21300402, guid: d21555ce72e390f49ba41fd54c373b1b, type: 3}
  - {fileID: 21300430, guid: d21555ce72e390f49ba41fd54c373b1b, type: 3}
  - {fileID: 21300556, guid: d21555ce72e390f49ba41fd54c373b1b, type: 3}
  - {fileID: 21300404, guid: d21555ce72e390f49ba41fd54c373b1b, type: 3}
  - {fileID: 21300428, guid: d21555ce72e390f49ba41fd54c373b1b, type: 3}
  - {fileID: 21300406, guid: d21555ce72e390f49ba41fd54c373b1b, type: 3}
  - {fileID: 21300426, guid: d21555ce72e390f49ba41fd54c373b1b, type: 3}
  - {fileID: 21300424, guid: d21555ce72e390f49ba41fd54c373b1b, type: 3}
  - {fileID: 21300456, guid: d21555ce72e390f49ba41fd54c373b1b, type: 3}
  - {fileID: 21300422, guid: d21555ce72e390f49ba41fd54c373b1b, type: 3}
  - {fileID: 21300458, guid: d21555ce72e390f49ba41fd54c373b1b, type: 3}
  - {fileID: 21300420, guid: d21555ce72e390f49ba41fd54c373b1b, type: 3}
  - {fileID: 21300416, guid: d21555ce72e390f49ba41fd54c373b1b, type: 3}
  - {fileID: 21300418, guid: d21555ce72e390f49ba41fd54c373b1b, type: 3}
  - {fileID: 21300444, guid: d21555ce72e390f49ba41fd54c373b1b, type: 3}
  - {fileID: 21300446, guid: d21555ce72e390f49ba41fd54c373b1b, type: 3}
  - {fileID: 21301180, guid: d21555ce72e390f49ba41fd54c373b1b, type: 3}
  - {fileID: 21300440, guid: d21555ce72e390f49ba41fd54c373b1b, type: 3}
  - {fileID: 21301182, guid: d21555ce72e390f49ba41fd54c373b1b, type: 3}
  - {fileID: 21300598, guid: d21555ce72e390f49ba41fd54c373b1b, type: 3}
  - {fileID: 21300438, guid: d21555ce72e390f49ba41fd54c373b1b, type: 3}
  - {fileID: 21300442, guid: d21555ce72e390f49ba41fd54c373b1b, type: 3}
  - {fileID: 21301184, guid: d21555ce72e390f49ba41fd54c373b1b, type: 3}
  - {fileID: 21300012, guid: d21555ce72e390f49ba41fd54c373b1b, type: 3}
  - {fileID: 21300596, guid: d21555ce72e390f49ba41fd54c373b1b, type: 3}
  - {fileID: 21300436, guid: d21555ce72e390f49ba41fd54c373b1b, type: 3}
  - {fileID: 21300452, guid: d21555ce72e390f49ba41fd54c373b1b, type: 3}
  - {fileID: 21301186, guid: d21555ce72e390f49ba41fd54c373b1b, type: 3}
  - {fileID: 21301166, guid: d21555ce72e390f49ba41fd54c373b1b, type: 3}
  - {fileID: 21300014, guid: d21555ce72e390f49ba41fd54c373b1b, type: 3}
  - {fileID: 21300594, guid: d21555ce72e390f49ba41fd54c373b1b, type: 3}
  - {fileID: 21300454, guid: d21555ce72e390f49ba41fd54c373b1b, type: 3}
  - {fileID: 21301188, guid: d21555ce72e390f49ba41fd54c373b1b, type: 3}
  - {fileID: 21301164, guid: d21555ce72e390f49ba41fd54c373b1b, type: 3}
  - {fileID: 21300008, guid: d21555ce72e390f49ba41fd54c373b1b, type: 3}
  - {fileID: 21301108, guid: d21555ce72e390f49ba41fd54c373b1b, type: 3}
  - {fileID: 21300592, guid: d21555ce72e390f49ba41fd54c373b1b, type: 3}
  - {fileID: 21300448, guid: d21555ce72e390f49ba41fd54c373b1b, type: 3}
  - {fileID: 21301190, guid: d21555ce72e390f49ba41fd54c373b1b, type: 3}
  - {fileID: 21301162, guid: d21555ce72e390f49ba41fd54c373b1b, type: 3}
  - {fileID: 21300010, guid: d21555ce72e390f49ba41fd54c373b1b, type: 3}
  - {fileID: 21301110, guid: d21555ce72e390f49ba41fd54c373b1b, type: 3}
  - {fileID: 21300590, guid: d21555ce72e390f49ba41fd54c373b1b, type: 3}
  - {fileID: 21300450, guid: d21555ce72e390f49ba41fd54c373b1b, type: 3}
  - {fileID: 21301192, guid: d21555ce72e390f49ba41fd54c373b1b, type: 3}
  - {fileID: 21301160, guid: d21555ce72e390f49ba41fd54c373b1b, type: 3}
  - {fileID: 21300004, guid: d21555ce72e390f49ba41fd54c373b1b, type: 3}
  - {fileID: 21301112, guid: d21555ce72e390f49ba41fd54c373b1b, type: 3}
  - {fileID: 21300588, guid: d21555ce72e390f49ba41fd54c373b1b, type: 3}
  - {fileID: 21301194, guid: d21555ce72e390f49ba41fd54c373b1b, type: 3}
  - {fileID: 21301174, guid: d21555ce72e390f49ba41fd54c373b1b, type: 3}
  - {fileID: 21300006, guid: d21555ce72e390f49ba41fd54c373b1b, type: 3}
  - {fileID: 21301114, guid: d21555ce72e390f49ba41fd54c373b1b, type: 3}
  - {fileID: 21301094, guid: d21555ce72e390f49ba41fd54c373b1b, type: 3}
  - {fileID: 21300586, guid: d21555ce72e390f49ba41fd54c373b1b, type: 3}
  - {fileID: 21301196, guid: d21555ce72e390f49ba41fd54c373b1b, type: 3}
  - {fileID: 21301172, guid: d21555ce72e390f49ba41fd54c373b1b, type: 3}
  - {fileID: 21301036, guid: d21555ce72e390f49ba41fd54c373b1b, type: 3}
  - {fileID: 21300000, guid: d21555ce72e390f49ba41fd54c373b1b, type: 3}
  - {fileID: 21301100, guid: d21555ce72e390f49ba41fd54c373b1b, type: 3}
  - {fileID: 21301092, guid: d21555ce72e390f49ba41fd54c373b1b, type: 3}
  - {fileID: 21300584, guid: d21555ce72e390f49ba41fd54c373b1b, type: 3}
  - {fileID: 21301198, guid: d21555ce72e390f49ba41fd54c373b1b, type: 3}
  - {fileID: 21301170, guid: d21555ce72e390f49ba41fd54c373b1b, type: 3}
  - {fileID: 21301038, guid: d21555ce72e390f49ba41fd54c373b1b, type: 3}
  - {fileID: 21300002, guid: d21555ce72e390f49ba41fd54c373b1b, type: 3}
  - {fileID: 21301102, guid: d21555ce72e390f49ba41fd54c373b1b, type: 3}
  - {fileID: 21301090, guid: d21555ce72e390f49ba41fd54c373b1b, type: 3}
  - {fileID: 21300582, guid: d21555ce72e390f49ba41fd54c373b1b, type: 3}
  - {fileID: 21301168, guid: d21555ce72e390f49ba41fd54c373b1b, type: 3}
  - {fileID: 21301104, guid: d21555ce72e390f49ba41fd54c373b1b, type: 3}
  - {fileID: 21301088, guid: d21555ce72e390f49ba41fd54c373b1b, type: 3}
  - {fileID: 21300580, guid: d21555ce72e390f49ba41fd54c373b1b, type: 3}
  - {fileID: 21301106, guid: d21555ce72e390f49ba41fd54c373b1b, type: 3}
  - {fileID: 21301086, guid: d21555ce72e390f49ba41fd54c373b1b, type: 3}
  - {fileID: 21301084, guid: d21555ce72e390f49ba41fd54c373b1b, type: 3}
  - {fileID: 21301156, guid: d21555ce72e390f49ba41fd54c373b1b, type: 3}
  - {fileID: 21301178, guid: d21555ce72e390f49ba41fd54c373b1b, type: 3}
  - {fileID: 21301082, guid: d21555ce72e390f49ba41fd54c373b1b, type: 3}
  - {fileID: 21301158, guid: d21555ce72e390f49ba41fd54c373b1b, type: 3}
  - {fileID: 21301176, guid: d21555ce72e390f49ba41fd54c373b1b, type: 3}
  - {fileID: 21301080, guid: d21555ce72e390f49ba41fd54c373b1b, type: 3}
  - {fileID: 21301020, guid: d21555ce72e390f49ba41fd54c373b1b, type: 3}
  - {fileID: 21300016, guid: d21555ce72e390f49ba41fd54c373b1b, type: 3}
  - {fileID: 21301116, guid: d21555ce72e390f49ba41fd54c373b1b, type: 3}
  - {fileID: 21301022, guid: d21555ce72e390f49ba41fd54c373b1b, type: 3}
  - {fileID: 21300018, guid: d21555ce72e390f49ba41fd54c373b1b, type: 3}
  - {fileID: 21301118, guid: d21555ce72e390f49ba41fd54c373b1b, type: 3}
  - {fileID: 21301138, guid: d21555ce72e390f49ba41fd54c373b1b, type: 3}
  - {fileID: 21300120, guid: d21555ce72e390f49ba41fd54c373b1b, type: 3}
  - {fileID: 21301024, guid: d21555ce72e390f49ba41fd54c373b1b, type: 3}
  - {fileID: 21301144, guid: d21555ce72e390f49ba41fd54c373b1b, type: 3}
  - {fileID: 21301136, guid: d21555ce72e390f49ba41fd54c373b1b, type: 3}
  - {fileID: 21300122, guid: d21555ce72e390f49ba41fd54c373b1b, type: 3}
  - {fileID: 21301026, guid: d21555ce72e390f49ba41fd54c373b1b, type: 3}
  - {fileID: 21301146, guid: d21555ce72e390f49ba41fd54c373b1b, type: 3}
  - {fileID: 21300920, guid: d21555ce72e390f49ba41fd54c373b1b, type: 3}
  - {fileID: 21300124, guid: d21555ce72e390f49ba41fd54c373b1b, type: 3}
  - {fileID: 21301028, guid: d21555ce72e390f49ba41fd54c373b1b, type: 3}
  - {fileID: 21301140, guid: d21555ce72e390f49ba41fd54c373b1b, type: 3}
  - {fileID: 21300922, guid: d21555ce72e390f49ba41fd54c373b1b, type: 3}
  - {fileID: 21300126, guid: d21555ce72e390f49ba41fd54c373b1b, type: 3}
  - {fileID: 21300146, guid: d21555ce72e390f49ba41fd54c373b1b, type: 3}
  - {fileID: 21301030, guid: d21555ce72e390f49ba41fd54c373b1b, type: 3}
  - {fileID: 21301098, guid: d21555ce72e390f49ba41fd54c373b1b, type: 3}
  - {fileID: 21301142, guid: d21555ce72e390f49ba41fd54c373b1b, type: 3}
  - {fileID: 21301130, guid: d21555ce72e390f49ba41fd54c373b1b, type: 3}
  - {fileID: 21300924, guid: d21555ce72e390f49ba41fd54c373b1b, type: 3}
  - {fileID: 21300128, guid: d21555ce72e390f49ba41fd54c373b1b, type: 3}
  - {fileID: 21300144, guid: d21555ce72e390f49ba41fd54c373b1b, type: 3}
  - {fileID: 21300804, guid: d21555ce72e390f49ba41fd54c373b1b, type: 3}
  - {fileID: 21301032, guid: d21555ce72e390f49ba41fd54c373b1b, type: 3}
  - {fileID: 21301096, guid: d21555ce72e390f49ba41fd54c373b1b, type: 3}
  - {fileID: 21301152, guid: d21555ce72e390f49ba41fd54c373b1b, type: 3}
  - {fileID: 21301128, guid: d21555ce72e390f49ba41fd54c373b1b, type: 3}
  - {fileID: 21300926, guid: d21555ce72e390f49ba41fd54c373b1b, type: 3}
  - {fileID: 21300946, guid: d21555ce72e390f49ba41fd54c373b1b, type: 3}
  - {fileID: 21300130, guid: d21555ce72e390f49ba41fd54c373b1b, type: 3}
  - {fileID: 21300142, guid: d21555ce72e390f49ba41fd54c373b1b, type: 3}
  - {fileID: 21300806, guid: d21555ce72e390f49ba41fd54c373b1b, type: 3}
  - {fileID: 21300030, guid: d21555ce72e390f49ba41fd54c373b1b, type: 3}
  - {fileID: 21301034, guid: d21555ce72e390f49ba41fd54c373b1b, type: 3}
  - {fileID: 21301154, guid: d21555ce72e390f49ba41fd54c373b1b, type: 3}
  - {fileID: 21301134, guid: d21555ce72e390f49ba41fd54c373b1b, type: 3}
  - {fileID: 21300928, guid: d21555ce72e390f49ba41fd54c373b1b, type: 3}
  - {fileID: 21300944, guid: d21555ce72e390f49ba41fd54c373b1b, type: 3}
  - {fileID: 21300132, guid: d21555ce72e390f49ba41fd54c373b1b, type: 3}
  - {fileID: 21300140, guid: d21555ce72e390f49ba41fd54c373b1b, type: 3}
  - {fileID: 21300800, guid: d21555ce72e390f49ba41fd54c373b1b, type: 3}
  - {fileID: 21300028, guid: d21555ce72e390f49ba41fd54c373b1b, type: 3}
  - {fileID: 21301148, guid: d21555ce72e390f49ba41fd54c373b1b, type: 3}
  - {fileID: 21301132, guid: d21555ce72e390f49ba41fd54c373b1b, type: 3}
  - {fileID: 21300930, guid: d21555ce72e390f49ba41fd54c373b1b, type: 3}
  - {fileID: 21300942, guid: d21555ce72e390f49ba41fd54c373b1b, type: 3}
  - {fileID: 21300134, guid: d21555ce72e390f49ba41fd54c373b1b, type: 3}
  - {fileID: 21300154, guid: d21555ce72e390f49ba41fd54c373b1b, type: 3}
  - {fileID: 21300802, guid: d21555ce72e390f49ba41fd54c373b1b, type: 3}
  - {fileID: 21300830, guid: d21555ce72e390f49ba41fd54c373b1b, type: 3}
  - {fileID: 21300034, guid: d21555ce72e390f49ba41fd54c373b1b, type: 3}
  - {fileID: 21301150, guid: d21555ce72e390f49ba41fd54c373b1b, type: 3}
  - {fileID: 21301122, guid: d21555ce72e390f49ba41fd54c373b1b, type: 3}
  - {fileID: 21300932, guid: d21555ce72e390f49ba41fd54c373b1b, type: 3}
  - {fileID: 21300940, guid: d21555ce72e390f49ba41fd54c373b1b, type: 3}
  - {fileID: 21300892, guid: d21555ce72e390f49ba41fd54c373b1b, type: 3}
  - {fileID: 21300136, guid: d21555ce72e390f49ba41fd54c373b1b, type: 3}
  - {fileID: 21300152, guid: d21555ce72e390f49ba41fd54c373b1b, type: 3}
  - {fileID: 21300812, guid: d21555ce72e390f49ba41fd54c373b1b, type: 3}
  - {fileID: 21300828, guid: d21555ce72e390f49ba41fd54c373b1b, type: 3}
  - {fileID: 21300032, guid: d21555ce72e390f49ba41fd54c373b1b, type: 3}
  - {fileID: 21301120, guid: d21555ce72e390f49ba41fd54c373b1b, type: 3}
  - {fileID: 21300934, guid: d21555ce72e390f49ba41fd54c373b1b, type: 3}
  - {fileID: 21300954, guid: d21555ce72e390f49ba41fd54c373b1b, type: 3}
  - {fileID: 21300894, guid: d21555ce72e390f49ba41fd54c373b1b, type: 3}
  - {fileID: 21300138, guid: d21555ce72e390f49ba41fd54c373b1b, type: 3}
  - {fileID: 21300150, guid: d21555ce72e390f49ba41fd54c373b1b, type: 3}
  - {fileID: 21300814, guid: d21555ce72e390f49ba41fd54c373b1b, type: 3}
  - {fileID: 21300834, guid: d21555ce72e390f49ba41fd54c373b1b, type: 3}
  - {fileID: 21300022, guid: d21555ce72e390f49ba41fd54c373b1b, type: 3}
  - {fileID: 21301126, guid: d21555ce72e390f49ba41fd54c373b1b, type: 3}
  - {fileID: 21300936, guid: d21555ce72e390f49ba41fd54c373b1b, type: 3}
  - {fileID: 21300952, guid: d21555ce72e390f49ba41fd54c373b1b, type: 3}
  - {fileID: 21300888, guid: d21555ce72e390f49ba41fd54c373b1b, type: 3}
  - {fileID: 21300148, guid: d21555ce72e390f49ba41fd54c373b1b, type: 3}
  - {fileID: 21300808, guid: d21555ce72e390f49ba41fd54c373b1b, type: 3}
  - {fileID: 21300832, guid: d21555ce72e390f49ba41fd54c373b1b, type: 3}
  - {fileID: 21300020, guid: d21555ce72e390f49ba41fd54c373b1b, type: 3}
  - {fileID: 21301124, guid: d21555ce72e390f49ba41fd54c373b1b, type: 3}
  - {fileID: 21300938, guid: d21555ce72e390f49ba41fd54c373b1b, type: 3}
  - {fileID: 21300950, guid: d21555ce72e390f49ba41fd54c373b1b, type: 3}
  - {fileID: 21300890, guid: d21555ce72e390f49ba41fd54c373b1b, type: 3}
  - {fileID: 21300810, guid: d21555ce72e390f49ba41fd54c373b1b, type: 3}
  - {fileID: 21300822, guid: d21555ce72e390f49ba41fd54c373b1b, type: 3}
  - {fileID: 21300026, guid: d21555ce72e390f49ba41fd54c373b1b, type: 3}
  - {fileID: 21300948, guid: d21555ce72e390f49ba41fd54c373b1b, type: 3}
  - {fileID: 21300884, guid: d21555ce72e390f49ba41fd54c373b1b, type: 3}
  - {fileID: 21300820, guid: d21555ce72e390f49ba41fd54c373b1b, type: 3}
  - {fileID: 21300024, guid: d21555ce72e390f49ba41fd54c373b1b, type: 3}
  - {fileID: 21300176, guid: d21555ce72e390f49ba41fd54c373b1b, type: 3}
  - {fileID: 21300886, guid: d21555ce72e390f49ba41fd54c373b1b, type: 3}
  - {fileID: 21300158, guid: d21555ce72e390f49ba41fd54c373b1b, type: 3}
  - {fileID: 21300826, guid: d21555ce72e390f49ba41fd54c373b1b, type: 3}
  - {fileID: 21300178, guid: d21555ce72e390f49ba41fd54c373b1b, type: 3}
  - {fileID: 21300880, guid: d21555ce72e390f49ba41fd54c373b1b, type: 3}
  - {fileID: 21300156, guid: d21555ce72e390f49ba41fd54c373b1b, type: 3}
  - {fileID: 21300816, guid: d21555ce72e390f49ba41fd54c373b1b, type: 3}
  - {fileID: 21300824, guid: d21555ce72e390f49ba41fd54c373b1b, type: 3}
  - {fileID: 21300976, guid: d21555ce72e390f49ba41fd54c373b1b, type: 3}
  - {fileID: 21300958, guid: d21555ce72e390f49ba41fd54c373b1b, type: 3}
  - {fileID: 21300882, guid: d21555ce72e390f49ba41fd54c373b1b, type: 3}
  - {fileID: 21300818, guid: d21555ce72e390f49ba41fd54c373b1b, type: 3}
  - {fileID: 21300978, guid: d21555ce72e390f49ba41fd54c373b1b, type: 3}
  - {fileID: 21300956, guid: d21555ce72e390f49ba41fd54c373b1b, type: 3}
  - {fileID: 21300038, guid: d21555ce72e390f49ba41fd54c373b1b, type: 3}
  - {fileID: 21300198, guid: d21555ce72e390f49ba41fd54c373b1b, type: 3}
  - {fileID: 21300036, guid: d21555ce72e390f49ba41fd54c373b1b, type: 3}
  - {fileID: 21300164, guid: d21555ce72e390f49ba41fd54c373b1b, type: 3}
  - {fileID: 21300196, guid: d21555ce72e390f49ba41fd54c373b1b, type: 3}
  - {fileID: 21300838, guid: d21555ce72e390f49ba41fd54c373b1b, type: 3}
  - {fileID: 21300998, guid: d21555ce72e390f49ba41fd54c373b1b, type: 3}
  - {fileID: 21300166, guid: d21555ce72e390f49ba41fd54c373b1b, type: 3}
  - {fileID: 21300836, guid: d21555ce72e390f49ba41fd54c373b1b, type: 3}
  - {fileID: 21300964, guid: d21555ce72e390f49ba41fd54c373b1b, type: 3}
  - {fileID: 21300996, guid: d21555ce72e390f49ba41fd54c373b1b, type: 3}
  - {fileID: 21300160, guid: d21555ce72e390f49ba41fd54c373b1b, type: 3}
  - {fileID: 21301460, guid: d21555ce72e390f49ba41fd54c373b1b, type: 3}
  - {fileID: 21301876, guid: d21555ce72e390f49ba41fd54c373b1b, type: 3}
  - {fileID: 21300966, guid: d21555ce72e390f49ba41fd54c373b1b, type: 3}
  - {fileID: 21300162, guid: d21555ce72e390f49ba41fd54c373b1b, type: 3}
  - {fileID: 21300190, guid: d21555ce72e390f49ba41fd54c373b1b, type: 3}
  - {fileID: 21301462, guid: d21555ce72e390f49ba41fd54c373b1b, type: 3}
  - {fileID: 21301898, guid: d21555ce72e390f49ba41fd54c373b1b, type: 3}
  - {fileID: 21301878, guid: d21555ce72e390f49ba41fd54c373b1b, type: 3}
  - {fileID: 21300896, guid: d21555ce72e390f49ba41fd54c373b1b, type: 3}
  - {fileID: 21300960, guid: d21555ce72e390f49ba41fd54c373b1b, type: 3}
  - {fileID: 21300172, guid: d21555ce72e390f49ba41fd54c373b1b, type: 3}
  - {fileID: 21300188, guid: d21555ce72e390f49ba41fd54c373b1b, type: 3}
  - {fileID: 21301464, guid: d21555ce72e390f49ba41fd54c373b1b, type: 3}
  - {fileID: 21301896, guid: d21555ce72e390f49ba41fd54c373b1b, type: 3}
  - {fileID: 21300898, guid: d21555ce72e390f49ba41fd54c373b1b, type: 3}
  - {fileID: 21300962, guid: d21555ce72e390f49ba41fd54c373b1b, type: 3}
  - {fileID: 21300990, guid: d21555ce72e390f49ba41fd54c373b1b, type: 3}
  - {fileID: 21300174, guid: d21555ce72e390f49ba41fd54c373b1b, type: 3}
  - {fileID: 21300194, guid: d21555ce72e390f49ba41fd54c373b1b, type: 3}
  - {fileID: 21301466, guid: d21555ce72e390f49ba41fd54c373b1b, type: 3}
  - {fileID: 21301446, guid: d21555ce72e390f49ba41fd54c373b1b, type: 3}
  - {fileID: 21300972, guid: d21555ce72e390f49ba41fd54c373b1b, type: 3}
  - {fileID: 21300988, guid: d21555ce72e390f49ba41fd54c373b1b, type: 3}
  - {fileID: 21300168, guid: d21555ce72e390f49ba41fd54c373b1b, type: 3}
  - {fileID: 21300192, guid: d21555ce72e390f49ba41fd54c373b1b, type: 3}
  - {fileID: 21301468, guid: d21555ce72e390f49ba41fd54c373b1b, type: 3}
  - {fileID: 21301444, guid: d21555ce72e390f49ba41fd54c373b1b, type: 3}
  - {fileID: 21301900, guid: d21555ce72e390f49ba41fd54c373b1b, type: 3}
  - {fileID: 21300974, guid: d21555ce72e390f49ba41fd54c373b1b, type: 3}
  - {fileID: 21300994, guid: d21555ce72e390f49ba41fd54c373b1b, type: 3}
  - {fileID: 21300170, guid: d21555ce72e390f49ba41fd54c373b1b, type: 3}
  - {fileID: 21300182, guid: d21555ce72e390f49ba41fd54c373b1b, type: 3}
  - {fileID: 21301470, guid: d21555ce72e390f49ba41fd54c373b1b, type: 3}
  - {fileID: 21301442, guid: d21555ce72e390f49ba41fd54c373b1b, type: 3}
  - {fileID: 21301490, guid: d21555ce72e390f49ba41fd54c373b1b, type: 3}
  - {fileID: 21301902, guid: d21555ce72e390f49ba41fd54c373b1b, type: 3}
  - {fileID: 21301858, guid: d21555ce72e390f49ba41fd54c373b1b, type: 3}
  - {fileID: 21300968, guid: d21555ce72e390f49ba41fd54c373b1b, type: 3}
  - {fileID: 21300992, guid: d21555ce72e390f49ba41fd54c373b1b, type: 3}
  - {fileID: 21300180, guid: d21555ce72e390f49ba41fd54c373b1b, type: 3}
  - {fileID: 21301472, guid: d21555ce72e390f49ba41fd54c373b1b, type: 3}
  - {fileID: 21301440, guid: d21555ce72e390f49ba41fd54c373b1b, type: 3}
  - {fileID: 21301432, guid: d21555ce72e390f49ba41fd54c373b1b, type: 3}
  - {fileID: 21301488, guid: d21555ce72e390f49ba41fd54c373b1b, type: 3}
  - {fileID: 21301904, guid: d21555ce72e390f49ba41fd54c373b1b, type: 3}
  - {fileID: 21301864, guid: d21555ce72e390f49ba41fd54c373b1b, type: 3}
  - {fileID: 21301856, guid: d21555ce72e390f49ba41fd54c373b1b, type: 3}
  - {fileID: 21300970, guid: d21555ce72e390f49ba41fd54c373b1b, type: 3}
  - {fileID: 21300982, guid: d21555ce72e390f49ba41fd54c373b1b, type: 3}
  - {fileID: 21300186, guid: d21555ce72e390f49ba41fd54c373b1b, type: 3}
  - {fileID: 21301474, guid: d21555ce72e390f49ba41fd54c373b1b, type: 3}
  - {fileID: 21301454, guid: d21555ce72e390f49ba41fd54c373b1b, type: 3}
  - {fileID: 21301434, guid: d21555ce72e390f49ba41fd54c373b1b, type: 3}
  - {fileID: 21301494, guid: d21555ce72e390f49ba41fd54c373b1b, type: 3}
  - {fileID: 21301906, guid: d21555ce72e390f49ba41fd54c373b1b, type: 3}
  - {fileID: 21301886, guid: d21555ce72e390f49ba41fd54c373b1b, type: 3}
  - {fileID: 21301866, guid: d21555ce72e390f49ba41fd54c373b1b, type: 3}
  - {fileID: 21300980, guid: d21555ce72e390f49ba41fd54c373b1b, type: 3}
  - {fileID: 21300184, guid: d21555ce72e390f49ba41fd54c373b1b, type: 3}
  - {fileID: 21301476, guid: d21555ce72e390f49ba41fd54c373b1b, type: 3}
  - {fileID: 21301452, guid: d21555ce72e390f49ba41fd54c373b1b, type: 3}
  - {fileID: 21301428, guid: d21555ce72e390f49ba41fd54c373b1b, type: 3}
  - {fileID: 21301492, guid: d21555ce72e390f49ba41fd54c373b1b, type: 3}
  - {fileID: 21301908, guid: d21555ce72e390f49ba41fd54c373b1b, type: 3}
  - {fileID: 21301884, guid: d21555ce72e390f49ba41fd54c373b1b, type: 3}
  - {fileID: 21301860, guid: d21555ce72e390f49ba41fd54c373b1b, type: 3}
  - {fileID: 21300986, guid: d21555ce72e390f49ba41fd54c373b1b, type: 3}
  - {fileID: 21301478, guid: d21555ce72e390f49ba41fd54c373b1b, type: 3}
  - {fileID: 21301450, guid: d21555ce72e390f49ba41fd54c373b1b, type: 3}
  - {fileID: 21301430, guid: d21555ce72e390f49ba41fd54c373b1b, type: 3}
  - {fileID: 21301418, guid: d21555ce72e390f49ba41fd54c373b1b, type: 3}
  - {fileID: 21301482, guid: d21555ce72e390f49ba41fd54c373b1b, type: 3}
  - {fileID: 21301910, guid: d21555ce72e390f49ba41fd54c373b1b, type: 3}
  - {fileID: 21301882, guid: d21555ce72e390f49ba41fd54c373b1b, type: 3}
  - {fileID: 21301862, guid: d21555ce72e390f49ba41fd54c373b1b, type: 3}
  - {fileID: 21301850, guid: d21555ce72e390f49ba41fd54c373b1b, type: 3}
  - {fileID: 21300984, guid: d21555ce72e390f49ba41fd54c373b1b, type: 3}
  - {fileID: 21301448, guid: d21555ce72e390f49ba41fd54c373b1b, type: 3}
  - {fileID: 21301424, guid: d21555ce72e390f49ba41fd54c373b1b, type: 3}
  - {fileID: 21301416, guid: d21555ce72e390f49ba41fd54c373b1b, type: 3}
  - {fileID: 21301480, guid: d21555ce72e390f49ba41fd54c373b1b, type: 3}
  - {fileID: 21301912, guid: d21555ce72e390f49ba41fd54c373b1b, type: 3}
  - {fileID: 21301880, guid: d21555ce72e390f49ba41fd54c373b1b, type: 3}
  - {fileID: 21301872, guid: d21555ce72e390f49ba41fd54c373b1b, type: 3}
  - {fileID: 21301848, guid: d21555ce72e390f49ba41fd54c373b1b, type: 3}
  - {fileID: 21301426, guid: d21555ce72e390f49ba41fd54c373b1b, type: 3}
  - {fileID: 21301486, guid: d21555ce72e390f49ba41fd54c373b1b, type: 3}
  - {fileID: 21301894, guid: d21555ce72e390f49ba41fd54c373b1b, type: 3}
  - {fileID: 21301874, guid: d21555ce72e390f49ba41fd54c373b1b, type: 3}
  - {fileID: 21301854, guid: d21555ce72e390f49ba41fd54c373b1b, type: 3}
  - {fileID: 21301420, guid: d21555ce72e390f49ba41fd54c373b1b, type: 3}
  - {fileID: 21301484, guid: d21555ce72e390f49ba41fd54c373b1b, type: 3}
  - {fileID: 21301892, guid: d21555ce72e390f49ba41fd54c373b1b, type: 3}
  - {fileID: 21301868, guid: d21555ce72e390f49ba41fd54c373b1b, type: 3}
  - {fileID: 21301852, guid: d21555ce72e390f49ba41fd54c373b1b, type: 3}
  - {fileID: 21301458, guid: d21555ce72e390f49ba41fd54c373b1b, type: 3}
  - {fileID: 21301422, guid: d21555ce72e390f49ba41fd54c373b1b, type: 3}
  - {fileID: 21301890, guid: d21555ce72e390f49ba41fd54c373b1b, type: 3}
  - {fileID: 21301870, guid: d21555ce72e390f49ba41fd54c373b1b, type: 3}
  - {fileID: 21301842, guid: d21555ce72e390f49ba41fd54c373b1b, type: 3}
  - {fileID: 21301772, guid: d21555ce72e390f49ba41fd54c373b1b, type: 3}
  - {fileID: 21301456, guid: d21555ce72e390f49ba41fd54c373b1b, type: 3}
  - {fileID: 21301888, guid: d21555ce72e390f49ba41fd54c373b1b, type: 3}
  - {fileID: 21301840, guid: d21555ce72e390f49ba41fd54c373b1b, type: 3}
  - {fileID: 21301774, guid: d21555ce72e390f49ba41fd54c373b1b, type: 3}
  - {fileID: 21301846, guid: d21555ce72e390f49ba41fd54c373b1b, type: 3}
  - {fileID: 21301768, guid: d21555ce72e390f49ba41fd54c373b1b, type: 3}
  - {fileID: 21301656, guid: d21555ce72e390f49ba41fd54c373b1b, type: 3}
  - {fileID: 21301844, guid: d21555ce72e390f49ba41fd54c373b1b, type: 3}
  - {fileID: 21300286, guid: d21555ce72e390f49ba41fd54c373b1b, type: 3}
  - {fileID: 21301770, guid: d21555ce72e390f49ba41fd54c373b1b, type: 3}
  - {fileID: 21301798, guid: d21555ce72e390f49ba41fd54c373b1b, type: 3}
  - {fileID: 21301402, guid: d21555ce72e390f49ba41fd54c373b1b, type: 3}
  - {fileID: 21301658, guid: d21555ce72e390f49ba41fd54c373b1b, type: 3}
  - {fileID: 21301498, guid: d21555ce72e390f49ba41fd54c373b1b, type: 3}
  - {fileID: 21300284, guid: d21555ce72e390f49ba41fd54c373b1b, type: 3}
  - {fileID: 21301764, guid: d21555ce72e390f49ba41fd54c373b1b, type: 3}
  - {fileID: 21301796, guid: d21555ce72e390f49ba41fd54c373b1b, type: 3}
  - {fileID: 21301400, guid: d21555ce72e390f49ba41fd54c373b1b, type: 3}
  - {fileID: 21301496, guid: d21555ce72e390f49ba41fd54c373b1b, type: 3}
  - {fileID: 21300282, guid: d21555ce72e390f49ba41fd54c373b1b, type: 3}
  - {fileID: 21301766, guid: d21555ce72e390f49ba41fd54c373b1b, type: 3}
  - {fileID: 21301406, guid: d21555ce72e390f49ba41fd54c373b1b, type: 3}
  - {fileID: 21300280, guid: d21555ce72e390f49ba41fd54c373b1b, type: 3}
  - {fileID: 21300352, guid: d21555ce72e390f49ba41fd54c373b1b, type: 3}
  - {fileID: 21301760, guid: d21555ce72e390f49ba41fd54c373b1b, type: 3}
  - {fileID: 21301436, guid: d21555ce72e390f49ba41fd54c373b1b, type: 3}
  - {fileID: 21301404, guid: d21555ce72e390f49ba41fd54c373b1b, type: 3}
  - {fileID: 21301596, guid: d21555ce72e390f49ba41fd54c373b1b, type: 3}
  - {fileID: 21300294, guid: d21555ce72e390f49ba41fd54c373b1b, type: 3}
  - {fileID: 21300354, guid: d21555ce72e390f49ba41fd54c373b1b, type: 3}
  - {fileID: 21301762, guid: d21555ce72e390f49ba41fd54c373b1b, type: 3}
  - {fileID: 21301438, guid: d21555ce72e390f49ba41fd54c373b1b, type: 3}
  - {fileID: 21301410, guid: d21555ce72e390f49ba41fd54c373b1b, type: 3}
  - {fileID: 21301678, guid: d21555ce72e390f49ba41fd54c373b1b, type: 3}
  - {fileID: 21301598, guid: d21555ce72e390f49ba41fd54c373b1b, type: 3}
  - {fileID: 21300292, guid: d21555ce72e390f49ba41fd54c373b1b, type: 3}
  - {fileID: 21300348, guid: d21555ce72e390f49ba41fd54c373b1b, type: 3}
  - {fileID: 21301408, guid: d21555ce72e390f49ba41fd54c373b1b, type: 3}
  - {fileID: 21301676, guid: d21555ce72e390f49ba41fd54c373b1b, type: 3}
  - {fileID: 21301592, guid: d21555ce72e390f49ba41fd54c373b1b, type: 3}
  - {fileID: 21301226, guid: d21555ce72e390f49ba41fd54c373b1b, type: 3}
  - {fileID: 21300290, guid: d21555ce72e390f49ba41fd54c373b1b, type: 3}
  - {fileID: 21300350, guid: d21555ce72e390f49ba41fd54c373b1b, type: 3}
  - {fileID: 21300338, guid: d21555ce72e390f49ba41fd54c373b1b, type: 3}
  - {fileID: 21301414, guid: d21555ce72e390f49ba41fd54c373b1b, type: 3}
  - {fileID: 21301594, guid: d21555ce72e390f49ba41fd54c373b1b, type: 3}
  - {fileID: 21301224, guid: d21555ce72e390f49ba41fd54c373b1b, type: 3}
  - {fileID: 21300288, guid: d21555ce72e390f49ba41fd54c373b1b, type: 3}
  - {fileID: 21300344, guid: d21555ce72e390f49ba41fd54c373b1b, type: 3}
  - {fileID: 21300336, guid: d21555ce72e390f49ba41fd54c373b1b, type: 3}
  - {fileID: 21301412, guid: d21555ce72e390f49ba41fd54c373b1b, type: 3}
  - {fileID: 21301640, guid: d21555ce72e390f49ba41fd54c373b1b, type: 3}
  - {fileID: 21301588, guid: d21555ce72e390f49ba41fd54c373b1b, type: 3}
  - {fileID: 21301222, guid: d21555ce72e390f49ba41fd54c373b1b, type: 3}
  - {fileID: 21300346, guid: d21555ce72e390f49ba41fd54c373b1b, type: 3}
  - {fileID: 21301782, guid: d21555ce72e390f49ba41fd54c373b1b, type: 3}
  - {fileID: 21301642, guid: d21555ce72e390f49ba41fd54c373b1b, type: 3}
  - {fileID: 21301590, guid: d21555ce72e390f49ba41fd54c373b1b, type: 3}
  - {fileID: 21301718, guid: d21555ce72e390f49ba41fd54c373b1b, type: 3}
  - {fileID: 21301220, guid: d21555ce72e390f49ba41fd54c373b1b, type: 3}
  - {fileID: 21301252, guid: d21555ce72e390f49ba41fd54c373b1b, type: 3}
  - {fileID: 21300340, guid: d21555ce72e390f49ba41fd54c373b1b, type: 3}
  - {fileID: 21301780, guid: d21555ce72e390f49ba41fd54c373b1b, type: 3}
  - {fileID: 21301644, guid: d21555ce72e390f49ba41fd54c373b1b, type: 3}
  - {fileID: 21301584, guid: d21555ce72e390f49ba41fd54c373b1b, type: 3}
  - {fileID: 21301716, guid: d21555ce72e390f49ba41fd54c373b1b, type: 3}
  - {fileID: 21301234, guid: d21555ce72e390f49ba41fd54c373b1b, type: 3}
  - {fileID: 21301254, guid: d21555ce72e390f49ba41fd54c373b1b, type: 3}
  - {fileID: 21300298, guid: d21555ce72e390f49ba41fd54c373b1b, type: 3}
  - {fileID: 21300342, guid: d21555ce72e390f49ba41fd54c373b1b, type: 3}
  - {fileID: 21301786, guid: d21555ce72e390f49ba41fd54c373b1b, type: 3}
  - {fileID: 21301646, guid: d21555ce72e390f49ba41fd54c373b1b, type: 3}
  - {fileID: 21301666, guid: d21555ce72e390f49ba41fd54c373b1b, type: 3}
  - {fileID: 21301586, guid: d21555ce72e390f49ba41fd54c373b1b, type: 3}
  - {fileID: 21301232, guid: d21555ce72e390f49ba41fd54c373b1b, type: 3}
  - {fileID: 21301248, guid: d21555ce72e390f49ba41fd54c373b1b, type: 3}
  - {fileID: 21301376, guid: d21555ce72e390f49ba41fd54c373b1b, type: 3}
  - {fileID: 21300296, guid: d21555ce72e390f49ba41fd54c373b1b, type: 3}
  - {fileID: 21301776, guid: d21555ce72e390f49ba41fd54c373b1b, type: 3}
  - {fileID: 21301784, guid: d21555ce72e390f49ba41fd54c373b1b, type: 3}
  - {fileID: 21301648, guid: d21555ce72e390f49ba41fd54c373b1b, type: 3}
  - {fileID: 21301664, guid: d21555ce72e390f49ba41fd54c373b1b, type: 3}
  - {fileID: 21301616, guid: d21555ce72e390f49ba41fd54c373b1b, type: 3}
  - {fileID: 21301580, guid: d21555ce72e390f49ba41fd54c373b1b, type: 3}
  - {fileID: 21301230, guid: d21555ce72e390f49ba41fd54c373b1b, type: 3}
  - {fileID: 21301250, guid: d21555ce72e390f49ba41fd54c373b1b, type: 3}
  - {fileID: 21301278, guid: d21555ce72e390f49ba41fd54c373b1b, type: 3}
  - {fileID: 21301378, guid: d21555ce72e390f49ba41fd54c373b1b, type: 3}
  - {fileID: 21301778, guid: d21555ce72e390f49ba41fd54c373b1b, type: 3}
  - {fileID: 21301790, guid: d21555ce72e390f49ba41fd54c373b1b, type: 3}
  - {fileID: 21301650, guid: d21555ce72e390f49ba41fd54c373b1b, type: 3}
  - {fileID: 21301662, guid: d21555ce72e390f49ba41fd54c373b1b, type: 3}
  - {fileID: 21301618, guid: d21555ce72e390f49ba41fd54c373b1b, type: 3}
  - {fileID: 21301582, guid: d21555ce72e390f49ba41fd54c373b1b, type: 3}
  - {fileID: 21301710, guid: d21555ce72e390f49ba41fd54c373b1b, type: 3}
  - {fileID: 21301228, guid: d21555ce72e390f49ba41fd54c373b1b, type: 3}
  - {fileID: 21301244, guid: d21555ce72e390f49ba41fd54c373b1b, type: 3}
  - {fileID: 21301276, guid: d21555ce72e390f49ba41fd54c373b1b, type: 3}
  - {fileID: 21300236, guid: d21555ce72e390f49ba41fd54c373b1b, type: 3}
  - {fileID: 21301788, guid: d21555ce72e390f49ba41fd54c373b1b, type: 3}
  - {fileID: 21301652, guid: d21555ce72e390f49ba41fd54c373b1b, type: 3}
  - {fileID: 21301660, guid: d21555ce72e390f49ba41fd54c373b1b, type: 3}
  - {fileID: 21301612, guid: d21555ce72e390f49ba41fd54c373b1b, type: 3}
  - {fileID: 21301708, guid: d21555ce72e390f49ba41fd54c373b1b, type: 3}
  - {fileID: 21301246, guid: d21555ce72e390f49ba41fd54c373b1b, type: 3}
  - {fileID: 21300322, guid: d21555ce72e390f49ba41fd54c373b1b, type: 3}
  - {fileID: 21300238, guid: d21555ce72e390f49ba41fd54c373b1b, type: 3}
  - {fileID: 21301794, guid: d21555ce72e390f49ba41fd54c373b1b, type: 3}
  - {fileID: 21301654, guid: d21555ce72e390f49ba41fd54c373b1b, type: 3}
  - {fileID: 21301674, guid: d21555ce72e390f49ba41fd54c373b1b, type: 3}
  - {fileID: 21301614, guid: d21555ce72e390f49ba41fd54c373b1b, type: 3}
  - {fileID: 21301714, guid: d21555ce72e390f49ba41fd54c373b1b, type: 3}
  - {fileID: 21301240, guid: d21555ce72e390f49ba41fd54c373b1b, type: 3}
  - {fileID: 21300320, guid: d21555ce72e390f49ba41fd54c373b1b, type: 3}
  - {fileID: 21301792, guid: d21555ce72e390f49ba41fd54c373b1b, type: 3}
  - {fileID: 21301672, guid: d21555ce72e390f49ba41fd54c373b1b, type: 3}
  - {fileID: 21301608, guid: d21555ce72e390f49ba41fd54c373b1b, type: 3}
  - {fileID: 21301712, guid: d21555ce72e390f49ba41fd54c373b1b, type: 3}
  - {fileID: 21301238, guid: d21555ce72e390f49ba41fd54c373b1b, type: 3}
  - {fileID: 21301242, guid: d21555ce72e390f49ba41fd54c373b1b, type: 3}
  - {fileID: 21301398, guid: d21555ce72e390f49ba41fd54c373b1b, type: 3}
  - {fileID: 21300326, guid: d21555ce72e390f49ba41fd54c373b1b, type: 3}
  - {fileID: 21301670, guid: d21555ce72e390f49ba41fd54c373b1b, type: 3}
  - {fileID: 21301610, guid: d21555ce72e390f49ba41fd54c373b1b, type: 3}
  - {fileID: 21301702, guid: d21555ce72e390f49ba41fd54c373b1b, type: 3}
  - {fileID: 21301236, guid: d21555ce72e390f49ba41fd54c373b1b, type: 3}
  - {fileID: 21301396, guid: d21555ce72e390f49ba41fd54c373b1b, type: 3}
  - {fileID: 21300356, guid: d21555ce72e390f49ba41fd54c373b1b, type: 3}
  - {fileID: 21300324, guid: d21555ce72e390f49ba41fd54c373b1b, type: 3}
  - {fileID: 21300228, guid: d21555ce72e390f49ba41fd54c373b1b, type: 3}
  - {fileID: 21301668, guid: d21555ce72e390f49ba41fd54c373b1b, type: 3}
  - {fileID: 21301604, guid: d21555ce72e390f49ba41fd54c373b1b, type: 3}
  - {fileID: 21301700, guid: d21555ce72e390f49ba41fd54c373b1b, type: 3}
  - {fileID: 21300358, guid: d21555ce72e390f49ba41fd54c373b1b, type: 3}
  - {fileID: 21300330, guid: d21555ce72e390f49ba41fd54c373b1b, type: 3}
  - {fileID: 21300230, guid: d21555ce72e390f49ba41fd54c373b1b, type: 3}
  - {fileID: 21301606, guid: d21555ce72e390f49ba41fd54c373b1b, type: 3}
  - {fileID: 21301706, guid: d21555ce72e390f49ba41fd54c373b1b, type: 3}
  - {fileID: 21301296, guid: d21555ce72e390f49ba41fd54c373b1b, type: 3}
  - {fileID: 21301360, guid: d21555ce72e390f49ba41fd54c373b1b, type: 3}
  - {fileID: 21300328, guid: d21555ce72e390f49ba41fd54c373b1b, type: 3}
  - {fileID: 21300232, guid: d21555ce72e390f49ba41fd54c373b1b, type: 3}
  - {fileID: 21301600, guid: d21555ce72e390f49ba41fd54c373b1b, type: 3}
  - {fileID: 21301704, guid: d21555ce72e390f49ba41fd54c373b1b, type: 3}
  - {fileID: 21301262, guid: d21555ce72e390f49ba41fd54c373b1b, type: 3}
  - {fileID: 21301298, guid: d21555ce72e390f49ba41fd54c373b1b, type: 3}
  - {fileID: 21301362, guid: d21555ce72e390f49ba41fd54c373b1b, type: 3}
  - {fileID: 21300334, guid: d21555ce72e390f49ba41fd54c373b1b, type: 3}
  - {fileID: 21300234, guid: d21555ce72e390f49ba41fd54c373b1b, type: 3}
  - {fileID: 21301602, guid: d21555ce72e390f49ba41fd54c373b1b, type: 3}
  - {fileID: 21301260, guid: d21555ce72e390f49ba41fd54c373b1b, type: 3}
  - {fileID: 21301364, guid: d21555ce72e390f49ba41fd54c373b1b, type: 3}
  - {fileID: 21300332, guid: d21555ce72e390f49ba41fd54c373b1b, type: 3}
  - {fileID: 21300220, guid: d21555ce72e390f49ba41fd54c373b1b, type: 3}
  - {fileID: 21301266, guid: d21555ce72e390f49ba41fd54c373b1b, type: 3}
  - {fileID: 21301366, guid: d21555ce72e390f49ba41fd54c373b1b, type: 3}
  - {fileID: 21301386, guid: d21555ce72e390f49ba41fd54c373b1b, type: 3}
  - {fileID: 21300222, guid: d21555ce72e390f49ba41fd54c373b1b, type: 3}
  - {fileID: 21301256, guid: d21555ce72e390f49ba41fd54c373b1b, type: 3}
  - {fileID: 21301264, guid: d21555ce72e390f49ba41fd54c373b1b, type: 3}
  - {fileID: 21301288, guid: d21555ce72e390f49ba41fd54c373b1b, type: 3}
  - {fileID: 21301368, guid: d21555ce72e390f49ba41fd54c373b1b, type: 3}
  - {fileID: 21301384, guid: d21555ce72e390f49ba41fd54c373b1b, type: 3}
  - {fileID: 21300224, guid: d21555ce72e390f49ba41fd54c373b1b, type: 3}
  - {fileID: 21301258, guid: d21555ce72e390f49ba41fd54c373b1b, type: 3}
  - {fileID: 21301270, guid: d21555ce72e390f49ba41fd54c373b1b, type: 3}
  - {fileID: 21301290, guid: d21555ce72e390f49ba41fd54c373b1b, type: 3}
  - {fileID: 21301370, guid: d21555ce72e390f49ba41fd54c373b1b, type: 3}
  - {fileID: 21301382, guid: d21555ce72e390f49ba41fd54c373b1b, type: 3}
  - {fileID: 21300226, guid: d21555ce72e390f49ba41fd54c373b1b, type: 3}
  - {fileID: 21301268, guid: d21555ce72e390f49ba41fd54c373b1b, type: 3}
  - {fileID: 21301292, guid: d21555ce72e390f49ba41fd54c373b1b, type: 3}
  - {fileID: 21301372, guid: d21555ce72e390f49ba41fd54c373b1b, type: 3}
  - {fileID: 21301380, guid: d21555ce72e390f49ba41fd54c373b1b, type: 3}
  - {fileID: 21301274, guid: d21555ce72e390f49ba41fd54c373b1b, type: 3}
  - {fileID: 21301294, guid: d21555ce72e390f49ba41fd54c373b1b, type: 3}
  - {fileID: 21301374, guid: d21555ce72e390f49ba41fd54c373b1b, type: 3}
  - {fileID: 21301394, guid: d21555ce72e390f49ba41fd54c373b1b, type: 3}
  - {fileID: 21301272, guid: d21555ce72e390f49ba41fd54c373b1b, type: 3}
  - {fileID: 21301280, guid: d21555ce72e390f49ba41fd54c373b1b, type: 3}
  - {fileID: 21301392, guid: d21555ce72e390f49ba41fd54c373b1b, type: 3}
  - {fileID: 21301282, guid: d21555ce72e390f49ba41fd54c373b1b, type: 3}
  - {fileID: 21301390, guid: d21555ce72e390f49ba41fd54c373b1b, type: 3}
  - {fileID: 21301284, guid: d21555ce72e390f49ba41fd54c373b1b, type: 3}
  - {fileID: 21301388, guid: d21555ce72e390f49ba41fd54c373b1b, type: 3}
  - {fileID: 21301286, guid: d21555ce72e390f49ba41fd54c373b1b, type: 3}
  - {fileID: 21300770, guid: d21555ce72e390f49ba41fd54c373b1b, type: 3}
  - {fileID: 21300768, guid: d21555ce72e390f49ba41fd54c373b1b, type: 3}
  - {fileID: 21300774, guid: d21555ce72e390f49ba41fd54c373b1b, type: 3}
  - {fileID: 21300772, guid: d21555ce72e390f49ba41fd54c373b1b, type: 3}
  - {fileID: 21300756, guid: d21555ce72e390f49ba41fd54c373b1b, type: 3}
  - {fileID: 21300762, guid: d21555ce72e390f49ba41fd54c373b1b, type: 3}
  - {fileID: 21300758, guid: d21555ce72e390f49ba41fd54c373b1b, type: 3}
  - {fileID: 21300760, guid: d21555ce72e390f49ba41fd54c373b1b, type: 3}
  - {fileID: 21300766, guid: d21555ce72e390f49ba41fd54c373b1b, type: 3}
  - {fileID: 21300764, guid: d21555ce72e390f49ba41fd54c373b1b, type: 3}
  - {fileID: 21300636, guid: d21555ce72e390f49ba41fd54c373b1b, type: 3}
  - {fileID: 21300738, guid: d21555ce72e390f49ba41fd54c373b1b, type: 3}
  - {fileID: 21300638, guid: d21555ce72e390f49ba41fd54c373b1b, type: 3}
  - {fileID: 21300736, guid: d21555ce72e390f49ba41fd54c373b1b, type: 3}
  - {fileID: 21300740, guid: d21555ce72e390f49ba41fd54c373b1b, type: 3}
  - {fileID: 21300778, guid: d21555ce72e390f49ba41fd54c373b1b, type: 3}
  - {fileID: 21300742, guid: d21555ce72e390f49ba41fd54c373b1b, type: 3}
  - {fileID: 21300618, guid: d21555ce72e390f49ba41fd54c373b1b, type: 3}
  - {fileID: 21300776, guid: d21555ce72e390f49ba41fd54c373b1b, type: 3}
  - {fileID: 21300744, guid: d21555ce72e390f49ba41fd54c373b1b, type: 3}
  - {fileID: 21300624, guid: d21555ce72e390f49ba41fd54c373b1b, type: 3}
  - {fileID: 21300616, guid: d21555ce72e390f49ba41fd54c373b1b, type: 3}
  - {fileID: 21300746, guid: d21555ce72e390f49ba41fd54c373b1b, type: 3}
  - {fileID: 21300726, guid: d21555ce72e390f49ba41fd54c373b1b, type: 3}
  - {fileID: 21300626, guid: d21555ce72e390f49ba41fd54c373b1b, type: 3}
  - {fileID: 21300748, guid: d21555ce72e390f49ba41fd54c373b1b, type: 3}
  - {fileID: 21300724, guid: d21555ce72e390f49ba41fd54c373b1b, type: 3}
  - {fileID: 21300716, guid: d21555ce72e390f49ba41fd54c373b1b, type: 3}
  - {fileID: 21300620, guid: d21555ce72e390f49ba41fd54c373b1b, type: 3}
  - {fileID: 21300750, guid: d21555ce72e390f49ba41fd54c373b1b, type: 3}
  - {fileID: 21300722, guid: d21555ce72e390f49ba41fd54c373b1b, type: 3}
  - {fileID: 21300718, guid: d21555ce72e390f49ba41fd54c373b1b, type: 3}
  - {fileID: 21300622, guid: d21555ce72e390f49ba41fd54c373b1b, type: 3}
  - {fileID: 21300610, guid: d21555ce72e390f49ba41fd54c373b1b, type: 3}
  - {fileID: 21300752, guid: d21555ce72e390f49ba41fd54c373b1b, type: 3}
  - {fileID: 21300720, guid: d21555ce72e390f49ba41fd54c373b1b, type: 3}
  - {fileID: 21300712, guid: d21555ce72e390f49ba41fd54c373b1b, type: 3}
  - {fileID: 21300632, guid: d21555ce72e390f49ba41fd54c373b1b, type: 3}
  - {fileID: 21300608, guid: d21555ce72e390f49ba41fd54c373b1b, type: 3}
  - {fileID: 21300754, guid: d21555ce72e390f49ba41fd54c373b1b, type: 3}
  - {fileID: 21300734, guid: d21555ce72e390f49ba41fd54c373b1b, type: 3}
  - {fileID: 21300714, guid: d21555ce72e390f49ba41fd54c373b1b, type: 3}
  - {fileID: 21300634, guid: d21555ce72e390f49ba41fd54c373b1b, type: 3}
  - {fileID: 21300614, guid: d21555ce72e390f49ba41fd54c373b1b, type: 3}
  - {fileID: 21300732, guid: d21555ce72e390f49ba41fd54c373b1b, type: 3}
  - {fileID: 21300708, guid: d21555ce72e390f49ba41fd54c373b1b, type: 3}
  - {fileID: 21300628, guid: d21555ce72e390f49ba41fd54c373b1b, type: 3}
  - {fileID: 21300612, guid: d21555ce72e390f49ba41fd54c373b1b, type: 3}
  - {fileID: 21300730, guid: d21555ce72e390f49ba41fd54c373b1b, type: 3}
  - {fileID: 21300710, guid: d21555ce72e390f49ba41fd54c373b1b, type: 3}
  - {fileID: 21300630, guid: d21555ce72e390f49ba41fd54c373b1b, type: 3}
  - {fileID: 21300602, guid: d21555ce72e390f49ba41fd54c373b1b, type: 3}
  - {fileID: 21300728, guid: d21555ce72e390f49ba41fd54c373b1b, type: 3}
  - {fileID: 21300704, guid: d21555ce72e390f49ba41fd54c373b1b, type: 3}
  - {fileID: 21300600, guid: d21555ce72e390f49ba41fd54c373b1b, type: 3}
  - {fileID: 21300706, guid: d21555ce72e390f49ba41fd54c373b1b, type: 3}
  - {fileID: 21300606, guid: d21555ce72e390f49ba41fd54c373b1b, type: 3}
  - {fileID: 21300496, guid: d21555ce72e390f49ba41fd54c373b1b, type: 3}
  - {fileID: 21300700, guid: d21555ce72e390f49ba41fd54c373b1b, type: 3}
  - {fileID: 21300604, guid: d21555ce72e390f49ba41fd54c373b1b, type: 3}
  - {fileID: 21300498, guid: d21555ce72e390f49ba41fd54c373b1b, type: 3}
  - {fileID: 21300702, guid: d21555ce72e390f49ba41fd54c373b1b, type: 3}
  - {fileID: 21300518, guid: d21555ce72e390f49ba41fd54c373b1b, type: 3}
  - {fileID: 21300516, guid: d21555ce72e390f49ba41fd54c373b1b, type: 3}
  - {fileID: 21300576, guid: d21555ce72e390f49ba41fd54c373b1b, type: 3}
  - {fileID: 21300480, guid: d21555ce72e390f49ba41fd54c373b1b, type: 3}
  - {fileID: 21300578, guid: d21555ce72e390f49ba41fd54c373b1b, type: 3}
  - {fileID: 21300482, guid: d21555ce72e390f49ba41fd54c373b1b, type: 3}
  - {fileID: 21300478, guid: d21555ce72e390f49ba41fd54c373b1b, type: 3}
  - {fileID: 21300484, guid: d21555ce72e390f49ba41fd54c373b1b, type: 3}
  - {fileID: 21300476, guid: d21555ce72e390f49ba41fd54c373b1b, type: 3}
  - {fileID: 21300486, guid: d21555ce72e390f49ba41fd54c373b1b, type: 3}
  - {fileID: 21300506, guid: d21555ce72e390f49ba41fd54c373b1b, type: 3}
  - {fileID: 21300568, guid: d21555ce72e390f49ba41fd54c373b1b, type: 3}
  - {fileID: 21300488, guid: d21555ce72e390f49ba41fd54c373b1b, type: 3}
  - {fileID: 21300504, guid: d21555ce72e390f49ba41fd54c373b1b, type: 3}
  - {fileID: 21300536, guid: d21555ce72e390f49ba41fd54c373b1b, type: 3}
  - {fileID: 21301042, guid: d21555ce72e390f49ba41fd54c373b1b, type: 3}
  - {fileID: 21300570, guid: d21555ce72e390f49ba41fd54c373b1b, type: 3}
  - {fileID: 21300490, guid: d21555ce72e390f49ba41fd54c373b1b, type: 3}
  - {fileID: 21300502, guid: d21555ce72e390f49ba41fd54c373b1b, type: 3}
  - {fileID: 21300538, guid: d21555ce72e390f49ba41fd54c373b1b, type: 3}
  - {fileID: 21300470, guid: d21555ce72e390f49ba41fd54c373b1b, type: 3}
  - {fileID: 21301040, guid: d21555ce72e390f49ba41fd54c373b1b, type: 3}
  - {fileID: 21300572, guid: d21555ce72e390f49ba41fd54c373b1b, type: 3}
  - {fileID: 21300492, guid: d21555ce72e390f49ba41fd54c373b1b, type: 3}
  - {fileID: 21300500, guid: d21555ce72e390f49ba41fd54c373b1b, type: 3}
  - {fileID: 21300532, guid: d21555ce72e390f49ba41fd54c373b1b, type: 3}
  - {fileID: 21300468, guid: d21555ce72e390f49ba41fd54c373b1b, type: 3}
  - {fileID: 21301046, guid: d21555ce72e390f49ba41fd54c373b1b, type: 3}
  - {fileID: 21300574, guid: d21555ce72e390f49ba41fd54c373b1b, type: 3}
  - {fileID: 21300494, guid: d21555ce72e390f49ba41fd54c373b1b, type: 3}
  - {fileID: 21300514, guid: d21555ce72e390f49ba41fd54c373b1b, type: 3}
  - {fileID: 21300534, guid: d21555ce72e390f49ba41fd54c373b1b, type: 3}
  - {fileID: 21300474, guid: d21555ce72e390f49ba41fd54c373b1b, type: 3}
  - {fileID: 21301044, guid: d21555ce72e390f49ba41fd54c373b1b, type: 3}
  - {fileID: 21300560, guid: d21555ce72e390f49ba41fd54c373b1b, type: 3}
  - {fileID: 21300512, guid: d21555ce72e390f49ba41fd54c373b1b, type: 3}
  - {fileID: 21300528, guid: d21555ce72e390f49ba41fd54c373b1b, type: 3}
  - {fileID: 21300472, guid: d21555ce72e390f49ba41fd54c373b1b, type: 3}
  - {fileID: 21301050, guid: d21555ce72e390f49ba41fd54c373b1b, type: 3}
  - {fileID: 21300562, guid: d21555ce72e390f49ba41fd54c373b1b, type: 3}
  - {fileID: 21300510, guid: d21555ce72e390f49ba41fd54c373b1b, type: 3}
  - {fileID: 21300530, guid: d21555ce72e390f49ba41fd54c373b1b, type: 3}
  - {fileID: 21300462, guid: d21555ce72e390f49ba41fd54c373b1b, type: 3}
  - {fileID: 21301048, guid: d21555ce72e390f49ba41fd54c373b1b, type: 3}
  - {fileID: 21300564, guid: d21555ce72e390f49ba41fd54c373b1b, type: 3}
  - {fileID: 21300508, guid: d21555ce72e390f49ba41fd54c373b1b, type: 3}
  - {fileID: 21300524, guid: d21555ce72e390f49ba41fd54c373b1b, type: 3}
  - {fileID: 21300460, guid: d21555ce72e390f49ba41fd54c373b1b, type: 3}
  - {fileID: 21301054, guid: d21555ce72e390f49ba41fd54c373b1b, type: 3}
  - {fileID: 21300566, guid: d21555ce72e390f49ba41fd54c373b1b, type: 3}
  - {fileID: 21300526, guid: d21555ce72e390f49ba41fd54c373b1b, type: 3}
  - {fileID: 21300466, guid: d21555ce72e390f49ba41fd54c373b1b, type: 3}
  - {fileID: 21301052, guid: d21555ce72e390f49ba41fd54c373b1b, type: 3}
  - {fileID: 21300520, guid: d21555ce72e390f49ba41fd54c373b1b, type: 3}
  - {fileID: 21300464, guid: d21555ce72e390f49ba41fd54c373b1b, type: 3}
  - {fileID: 21301058, guid: d21555ce72e390f49ba41fd54c373b1b, type: 3}
  - {fileID: 21300522, guid: d21555ce72e390f49ba41fd54c373b1b, type: 3}
  - {fileID: 21301056, guid: d21555ce72e390f49ba41fd54c373b1b, type: 3}
  - {fileID: 21301018, guid: d21555ce72e390f49ba41fd54c373b1b, type: 3}
  - {fileID: 21301016, guid: d21555ce72e390f49ba41fd54c373b1b, type: 3}
  - {fileID: 21301006, guid: d21555ce72e390f49ba41fd54c373b1b, type: 3}
  - {fileID: 21301004, guid: d21555ce72e390f49ba41fd54c373b1b, type: 3}
  - {fileID: 21301076, guid: d21555ce72e390f49ba41fd54c373b1b, type: 3}
  - {fileID: 21301002, guid: d21555ce72e390f49ba41fd54c373b1b, type: 3}
  - {fileID: 21301078, guid: d21555ce72e390f49ba41fd54c373b1b, type: 3}
  - {fileID: 21301000, guid: d21555ce72e390f49ba41fd54c373b1b, type: 3}
  - {fileID: 21301072, guid: d21555ce72e390f49ba41fd54c373b1b, type: 3}
  - {fileID: 21301014, guid: d21555ce72e390f49ba41fd54c373b1b, type: 3}
  - {fileID: 21301074, guid: d21555ce72e390f49ba41fd54c373b1b, type: 3}
  - {fileID: 21300092, guid: d21555ce72e390f49ba41fd54c373b1b, type: 3}
  - {fileID: 21301012, guid: d21555ce72e390f49ba41fd54c373b1b, type: 3}
  - {fileID: 21301068, guid: d21555ce72e390f49ba41fd54c373b1b, type: 3}
  - {fileID: 21300094, guid: d21555ce72e390f49ba41fd54c373b1b, type: 3}
  - {fileID: 21301010, guid: d21555ce72e390f49ba41fd54c373b1b, type: 3}
  - {fileID: 21301070, guid: d21555ce72e390f49ba41fd54c373b1b, type: 3}
  - {fileID: 21300088, guid: d21555ce72e390f49ba41fd54c373b1b, type: 3}
  - {fileID: 21301008, guid: d21555ce72e390f49ba41fd54c373b1b, type: 3}
  - {fileID: 21301064, guid: d21555ce72e390f49ba41fd54c373b1b, type: 3}
  - {fileID: 21300090, guid: d21555ce72e390f49ba41fd54c373b1b, type: 3}
  - {fileID: 21300118, guid: d21555ce72e390f49ba41fd54c373b1b, type: 3}
  - {fileID: 21301066, guid: d21555ce72e390f49ba41fd54c373b1b, type: 3}
  - {fileID: 21300084, guid: d21555ce72e390f49ba41fd54c373b1b, type: 3}
  - {fileID: 21300116, guid: d21555ce72e390f49ba41fd54c373b1b, type: 3}
  - {fileID: 21301060, guid: d21555ce72e390f49ba41fd54c373b1b, type: 3}
  - {fileID: 21300918, guid: d21555ce72e390f49ba41fd54c373b1b, type: 3}
  - {fileID: 21300086, guid: d21555ce72e390f49ba41fd54c373b1b, type: 3}
  - {fileID: 21301062, guid: d21555ce72e390f49ba41fd54c373b1b, type: 3}
  - {fileID: 21300916, guid: d21555ce72e390f49ba41fd54c373b1b, type: 3}
  - {fileID: 21300080, guid: d21555ce72e390f49ba41fd54c373b1b, type: 3}
  - {fileID: 21301828, guid: d21555ce72e390f49ba41fd54c373b1b, type: 3}
  - {fileID: 21300082, guid: d21555ce72e390f49ba41fd54c373b1b, type: 3}
  - {fileID: 21301830, guid: d21555ce72e390f49ba41fd54c373b1b, type: 3}
  - {fileID: 21301832, guid: d21555ce72e390f49ba41fd54c373b1b, type: 3}
  - {fileID: 21301834, guid: d21555ce72e390f49ba41fd54c373b1b, type: 3}
  - {fileID: 21301814, guid: d21555ce72e390f49ba41fd54c373b1b, type: 3}
  - {fileID: 21300056, guid: d21555ce72e390f49ba41fd54c373b1b, type: 3}
  - {fileID: 21301820, guid: d21555ce72e390f49ba41fd54c373b1b, type: 3}
  - {fileID: 21301812, guid: d21555ce72e390f49ba41fd54c373b1b, type: 3}
  - {fileID: 21300102, guid: d21555ce72e390f49ba41fd54c373b1b, type: 3}
  - {fileID: 21300058, guid: d21555ce72e390f49ba41fd54c373b1b, type: 3}
  - {fileID: 21301822, guid: d21555ce72e390f49ba41fd54c373b1b, type: 3}
  - {fileID: 21301810, guid: d21555ce72e390f49ba41fd54c373b1b, type: 3}
  - {fileID: 21300856, guid: d21555ce72e390f49ba41fd54c373b1b, type: 3}
  - {fileID: 21300100, guid: d21555ce72e390f49ba41fd54c373b1b, type: 3}
  - {fileID: 21301824, guid: d21555ce72e390f49ba41fd54c373b1b, type: 3}
  - {fileID: 21301808, guid: d21555ce72e390f49ba41fd54c373b1b, type: 3}
  - {fileID: 21300902, guid: d21555ce72e390f49ba41fd54c373b1b, type: 3}
  - {fileID: 21300858, guid: d21555ce72e390f49ba41fd54c373b1b, type: 3}
  - {fileID: 21300106, guid: d21555ce72e390f49ba41fd54c373b1b, type: 3}
  - {fileID: 21301826, guid: d21555ce72e390f49ba41fd54c373b1b, type: 3}
  - {fileID: 21301806, guid: d21555ce72e390f49ba41fd54c373b1b, type: 3}
  - {fileID: 21300900, guid: d21555ce72e390f49ba41fd54c373b1b, type: 3}
  - {fileID: 21300096, guid: d21555ce72e390f49ba41fd54c373b1b, type: 3}
  - {fileID: 21300104, guid: d21555ce72e390f49ba41fd54c373b1b, type: 3}
  - {fileID: 21300048, guid: d21555ce72e390f49ba41fd54c373b1b, type: 3}
  - {fileID: 21301804, guid: d21555ce72e390f49ba41fd54c373b1b, type: 3}
  - {fileID: 21300906, guid: d21555ce72e390f49ba41fd54c373b1b, type: 3}
  - {fileID: 21300098, guid: d21555ce72e390f49ba41fd54c373b1b, type: 3}
  - {fileID: 21300110, guid: d21555ce72e390f49ba41fd54c373b1b, type: 3}
  - {fileID: 21300050, guid: d21555ce72e390f49ba41fd54c373b1b, type: 3}
  - {fileID: 21300078, guid: d21555ce72e390f49ba41fd54c373b1b, type: 3}
  - {fileID: 21301562, guid: d21555ce72e390f49ba41fd54c373b1b, type: 3}
  - {fileID: 21301802, guid: d21555ce72e390f49ba41fd54c373b1b, type: 3}
  - {fileID: 21300904, guid: d21555ce72e390f49ba41fd54c373b1b, type: 3}
  - {fileID: 21300848, guid: d21555ce72e390f49ba41fd54c373b1b, type: 3}
  - {fileID: 21300108, guid: d21555ce72e390f49ba41fd54c373b1b, type: 3}
  - {fileID: 21300052, guid: d21555ce72e390f49ba41fd54c373b1b, type: 3}
  - {fileID: 21300076, guid: d21555ce72e390f49ba41fd54c373b1b, type: 3}
  - {fileID: 21301504, guid: d21555ce72e390f49ba41fd54c373b1b, type: 3}
  - {fileID: 21301560, guid: d21555ce72e390f49ba41fd54c373b1b, type: 3}
  - {fileID: 21301800, guid: d21555ce72e390f49ba41fd54c373b1b, type: 3}
  - {fileID: 21300910, guid: d21555ce72e390f49ba41fd54c373b1b, type: 3}
  - {fileID: 21300850, guid: d21555ce72e390f49ba41fd54c373b1b, type: 3}
  - {fileID: 21300878, guid: d21555ce72e390f49ba41fd54c373b1b, type: 3}
  - {fileID: 21300114, guid: d21555ce72e390f49ba41fd54c373b1b, type: 3}
  - {fileID: 21300054, guid: d21555ce72e390f49ba41fd54c373b1b, type: 3}
  - {fileID: 21300074, guid: d21555ce72e390f49ba41fd54c373b1b, type: 3}
  - {fileID: 21301506, guid: d21555ce72e390f49ba41fd54c373b1b, type: 3}
  - {fileID: 21301566, guid: d21555ce72e390f49ba41fd54c373b1b, type: 3}
  - {fileID: 21300908, guid: d21555ce72e390f49ba41fd54c373b1b, type: 3}
  - {fileID: 21300852, guid: d21555ce72e390f49ba41fd54c373b1b, type: 3}
  - {fileID: 21300876, guid: d21555ce72e390f49ba41fd54c373b1b, type: 3}
  - {fileID: 21300112, guid: d21555ce72e390f49ba41fd54c373b1b, type: 3}
  - {fileID: 21300040, guid: d21555ce72e390f49ba41fd54c373b1b, type: 3}
  - {fileID: 21300072, guid: d21555ce72e390f49ba41fd54c373b1b, type: 3}
  - {fileID: 21301500, guid: d21555ce72e390f49ba41fd54c373b1b, type: 3}
  - {fileID: 21301564, guid: d21555ce72e390f49ba41fd54c373b1b, type: 3}
  - {fileID: 21301836, guid: d21555ce72e390f49ba41fd54c373b1b, type: 3}
  - {fileID: 21300914, guid: d21555ce72e390f49ba41fd54c373b1b, type: 3}
  - {fileID: 21300854, guid: d21555ce72e390f49ba41fd54c373b1b, type: 3}
  - {fileID: 21300874, guid: d21555ce72e390f49ba41fd54c373b1b, type: 3}
  - {fileID: 21300042, guid: d21555ce72e390f49ba41fd54c373b1b, type: 3}
  - {fileID: 21300070, guid: d21555ce72e390f49ba41fd54c373b1b, type: 3}
  - {fileID: 21301502, guid: d21555ce72e390f49ba41fd54c373b1b, type: 3}
  - {fileID: 21301570, guid: d21555ce72e390f49ba41fd54c373b1b, type: 3}
  - {fileID: 21301838, guid: d21555ce72e390f49ba41fd54c373b1b, type: 3}
  - {fileID: 21300912, guid: d21555ce72e390f49ba41fd54c373b1b, type: 3}
  - {fileID: 21300840, guid: d21555ce72e390f49ba41fd54c373b1b, type: 3}
  - {fileID: 21300872, guid: d21555ce72e390f49ba41fd54c373b1b, type: 3}
  - {fileID: 21300044, guid: d21555ce72e390f49ba41fd54c373b1b, type: 3}
  - {fileID: 21300068, guid: d21555ce72e390f49ba41fd54c373b1b, type: 3}
  - {fileID: 21301512, guid: d21555ce72e390f49ba41fd54c373b1b, type: 3}
  - {fileID: 21301568, guid: d21555ce72e390f49ba41fd54c373b1b, type: 3}
  m_PackedSpriteNamesToIndex:
  - mainlevbuild_421
  - mainlevbuild_435
  - mainlevbuild_23
  - mainlevbuild_33
  - mainlevbuild_757
  - mainlevbuild_787
  - mainlevbuild_422
  - mainlevbuild_434
  - mainlevbuild_32
  - mainlevbuild_754
  - mainlevbuild_786
  - mainlevbuild_423
  - mainlevbuild_433
  - mainlevbuild_31
  - mainlevbuild_755
  - mainlevbuild_811
  - mainlevbuild_789
  - mainlevbuild_909
  - mainlevbuild_432
  - mainlevbuild_30
  - mainlevbuild_810
  - mainlevbuild_788
  - mainlevbuild_908
  - mainlevbuild_431
  - mainlevbuild_813
  - mainlevbuild_430
  - mainlevbuild_758
  - mainlevbuild_812
  - mainlevbuild_864
  - mainlevbuild_759
  - mainlevbuild_815
  - mainlevbuild_865
  - mainlevbuild_150
  - mainlevbuild_814
  - mainlevbuild_866
  - mainlevbuild_151
  - mainlevbuild_817
  - mainlevbuild_867
  - mainlevbuild_877
  - mainlevbuild_152
  - mainlevbuild_132
  - mainlevbuild_778
  - mainlevbuild_816
  - mainlevbuild_860
  - mainlevbuild_876
  - mainlevbuild_153
  - mainlevbuild_133
  - mainlevbuild_779
  - mainlevbuild_819
  - mainlevbuild_861
  - mainlevbuild_875
  - mainlevbuild_154
  - mainlevbuild_130
  - mainlevbuild_194
  - mainlevbuild_818
  - mainlevbuild_862
  - mainlevbuild_874
  - mainlevbuild_155
  - mainlevbuild_131
  - mainlevbuild_125
  - mainlevbuild_195
  - mainlevbuild_863
  - mainlevbuild_873
  - mainlevbuild_600
  - mainlevbuild_156
  - mainlevbuild_136
  - mainlevbuild_124
  - mainlevbuild_196
  - mainlevbuild_774
  - mainlevbuild_872
  - mainlevbuild_848
  - mainlevbuild_601
  - mainlevbuild_157
  - mainlevbuild_137
  - mainlevbuild_127
  - mainlevbuild_197
  - mainlevbuild_187
  - mainlevbuild_775
  - mainlevbuild_769
  - mainlevbuild_871
  - mainlevbuild_849
  - mainlevbuild_602
  - mainlevbuild_662
  - mainlevbuild_158
  - mainlevbuild_134
  - mainlevbuild_126
  - mainlevbuild_190
  - mainlevbuild_186
  - mainlevbuild_776
  - mainlevbuild_768
  - mainlevbuild_870
  - mainlevbuild_603
  - mainlevbuild_663
  - mainlevbuild_159
  - mainlevbuild_135
  - mainlevbuild_121
  - mainlevbuild_191
  - mainlevbuild_185
  - mainlevbuild_777
  - mainlevbuild_767
  - mainlevbuild_604
  - mainlevbuild_660
  - mainlevbuild_120
  - mainlevbuild_192
  - mainlevbuild_184
  - mainlevbuild_770
  - mainlevbuild_766
  - mainlevbuild_868
  - mainlevbuild_605
  - mainlevbuild_661
  - mainlevbuild_675
  - mainlevbuild_123
  - mainlevbuild_193
  - mainlevbuild_183
  - mainlevbuild_771
  - mainlevbuild_765
  - mainlevbuild_869
  - mainlevbuild_606
  - mainlevbuild_666
  - mainlevbuild_674
  - mainlevbuild_138
  - mainlevbuild_122
  - mainlevbuild_182
  - mainlevbuild_772
  - mainlevbuild_764
  - mainlevbuild_842
  - mainlevbuild_607
  - mainlevbuild_667
  - mainlevbuild_677
  - mainlevbuild_139
  - mainlevbuild_181
  - mainlevbuild_773
  - mainlevbuild_763
  - mainlevbuild_843
  - mainlevbuild_608
  - mainlevbuild_664
  - mainlevbuild_676
  - mainlevbuild_180
  - mainlevbuild_762
  - mainlevbuild_840
  - mainlevbuild_609
  - mainlevbuild_665
  - mainlevbuild_671
  - mainlevbuild_761
  - mainlevbuild_879
  - mainlevbuild_841
  - mainlevbuild_670
  - mainlevbuild_198
  - mainlevbuild_760
  - mainlevbuild_878
  - mainlevbuild_846
  - mainlevbuild_673
  - mainlevbuild_129
  - mainlevbuild_199
  - mainlevbuild_847
  - mainlevbuild_668
  - mainlevbuild_672
  - mainlevbuild_128
  - mainlevbuild_844
  - mainlevbuild_669
  - mainlevbuild_845
  - mainlevbuild_109
  - mainlevbuild_189
  - mainlevbuild_108
  - mainlevbuild_188
  - mainlevbuild_679
  - mainlevbuild_107
  - mainlevbuild_678
  - mainlevbuild_106
  - mainlevbuild_105
  - mainlevbuild_104
  - mainlevbuild_659
  - mainlevbuild_103
  - mainlevbuild_658
  - mainlevbuild_102
  - mainlevbuild_657
  - mainlevbuild_101
  - mainlevbuild_656
  - mainlevbuild_100
  - mainlevbuild_655
  - mainlevbuild_654
  - mainlevbuild_653
  - mainlevbuild_652
  - mainlevbuild_651
  - mainlevbuild_650
  - mainlevbuild_341
  - mainlevbuild_392
  - mainlevbuild_340
  - mainlevbuild_393
  - mainlevbuild_343
  - mainlevbuild_390
  - mainlevbuild_342
  - mainlevbuild_334
  - mainlevbuild_391
  - mainlevbuild_345
  - mainlevbuild_335
  - mainlevbuild_396
  - mainlevbuild_344
  - mainlevbuild_336
  - mainlevbuild_397
  - mainlevbuild_347
  - mainlevbuild_337
  - mainlevbuild_327
  - mainlevbuild_394
  - mainlevbuild_346
  - mainlevbuild_330
  - mainlevbuild_326
  - mainlevbuild_395
  - mainlevbuild_349
  - mainlevbuild_331
  - mainlevbuild_325
  - mainlevbuild_348
  - mainlevbuild_332
  - mainlevbuild_324
  - mainlevbuild_333
  - mainlevbuild_323
  - mainlevbuild_398
  - mainlevbuild_322
  - mainlevbuild_399
  - mainlevbuild_321
  - mainlevbuild_320
  - mainlevbuild_338
  - mainlevbuild_339
  - mainlevbuild_271
  - mainlevbuild_329
  - mainlevbuild_270
  - mainlevbuild_328
  - mainlevbuild_273
  - mainlevbuild_272
  - mainlevbuild_204
  - mainlevbuild_275
  - mainlevbuild_205
  - mainlevbuild_274
  - mainlevbuild_206
  - mainlevbuild_277
  - mainlevbuild_207
  - mainlevbuild_217
  - mainlevbuild_276
  - mainlevbuild_200
  - mainlevbuild_216
  - mainlevbuild_279
  - mainlevbuild_201
  - mainlevbuild_215
  - mainlevbuild_278
  - mainlevbuild_202
  - mainlevbuild_214
  - mainlevbuild_203
  - mainlevbuild_213
  - mainlevbuild_212
  - mainlevbuild_228
  - mainlevbuild_211
  - mainlevbuild_229
  - mainlevbuild_210
  - mainlevbuild_208
  - mainlevbuild_209
  - mainlevbuild_222
  - mainlevbuild_223
  - mainlevbuild_590
  - mainlevbuild_220
  - mainlevbuild_591
  - mainlevbuild_299
  - mainlevbuild_219
  - mainlevbuild_221
  - mainlevbuild_592
  - mainlevbuild_6
  - mainlevbuild_298
  - mainlevbuild_218
  - mainlevbuild_226
  - mainlevbuild_593
  - mainlevbuild_583
  - mainlevbuild_7
  - mainlevbuild_297
  - mainlevbuild_227
  - mainlevbuild_594
  - mainlevbuild_582
  - mainlevbuild_4
  - mainlevbuild_554
  - mainlevbuild_296
  - mainlevbuild_224
  - mainlevbuild_595
  - mainlevbuild_581
  - mainlevbuild_5
  - mainlevbuild_555
  - mainlevbuild_295
  - mainlevbuild_225
  - mainlevbuild_596
  - mainlevbuild_580
  - mainlevbuild_2
  - mainlevbuild_556
  - mainlevbuild_294
  - mainlevbuild_597
  - mainlevbuild_587
  - mainlevbuild_3
  - mainlevbuild_557
  - mainlevbuild_547
  - mainlevbuild_293
  - mainlevbuild_598
  - mainlevbuild_586
  - mainlevbuild_518
  - mainlevbuild_0
  - mainlevbuild_550
  - mainlevbuild_546
  - mainlevbuild_292
  - mainlevbuild_599
  - mainlevbuild_585
  - mainlevbuild_519
  - mainlevbuild_1
  - mainlevbuild_551
  - mainlevbuild_545
  - mainlevbuild_291
  - mainlevbuild_584
  - mainlevbuild_552
  - mainlevbuild_544
  - mainlevbuild_290
  - mainlevbuild_553
  - mainlevbuild_543
  - mainlevbuild_542
  - mainlevbuild_578
  - mainlevbuild_589
  - mainlevbuild_541
  - mainlevbuild_579
  - mainlevbuild_588
  - mainlevbuild_540
  - mainlevbuild_510
  - mainlevbuild_8
  - mainlevbuild_558
  - mainlevbuild_511
  - mainlevbuild_9
  - mainlevbuild_559
  - mainlevbuild_569
  - mainlevbuild_60
  - mainlevbuild_512
  - mainlevbuild_572
  - mainlevbuild_568
  - mainlevbuild_61
  - mainlevbuild_513
  - mainlevbuild_573
  - mainlevbuild_460
  - mainlevbuild_62
  - mainlevbuild_514
  - mainlevbuild_570
  - mainlevbuild_461
  - mainlevbuild_63
  - mainlevbuild_73
  - mainlevbuild_515
  - mainlevbuild_549
  - mainlevbuild_571
  - mainlevbuild_565
  - mainlevbuild_462
  - mainlevbuild_64
  - mainlevbuild_72
  - mainlevbuild_402
  - mainlevbuild_516
  - mainlevbuild_548
  - mainlevbuild_576
  - mainlevbuild_564
  - mainlevbuild_463
  - mainlevbuild_473
  - mainlevbuild_65
  - mainlevbuild_71
  - mainlevbuild_403
  - mainlevbuild_15
  - mainlevbuild_517
  - mainlevbuild_577
  - mainlevbuild_567
  - mainlevbuild_464
  - mainlevbuild_472
  - mainlevbuild_66
  - mainlevbuild_70
  - mainlevbuild_400
  - mainlevbuild_14
  - mainlevbuild_574
  - mainlevbuild_566
  - mainlevbuild_465
  - mainlevbuild_471
  - mainlevbuild_67
  - mainlevbuild_77
  - mainlevbuild_401
  - mainlevbuild_415
  - mainlevbuild_17
  - mainlevbuild_575
  - mainlevbuild_561
  - mainlevbuild_466
  - mainlevbuild_470
  - mainlevbuild_446
  - mainlevbuild_68
  - mainlevbuild_76
  - mainlevbuild_406
  - mainlevbuild_414
  - mainlevbuild_16
  - mainlevbuild_560
  - mainlevbuild_467
  - mainlevbuild_477
  - mainlevbuild_447
  - mainlevbuild_69
  - mainlevbuild_75
  - mainlevbuild_407
  - mainlevbuild_417
  - mainlevbuild_11
  - mainlevbuild_563
  - mainlevbuild_468
  - mainlevbuild_476
  - mainlevbuild_444
  - mainlevbuild_74
  - mainlevbuild_404
  - mainlevbuild_416
  - mainlevbuild_10
  - mainlevbuild_562
  - mainlevbuild_469
  - mainlevbuild_475
  - mainlevbuild_445
  - mainlevbuild_405
  - mainlevbuild_411
  - mainlevbuild_13
  - mainlevbuild_474
  - mainlevbuild_442
  - mainlevbuild_410
  - mainlevbuild_12
  - mainlevbuild_88
  - mainlevbuild_443
  - mainlevbuild_79
  - mainlevbuild_413
  - mainlevbuild_89
  - mainlevbuild_440
  - mainlevbuild_78
  - mainlevbuild_408
  - mainlevbuild_412
  - mainlevbuild_488
  - mainlevbuild_479
  - mainlevbuild_441
  - mainlevbuild_409
  - mainlevbuild_489
  - mainlevbuild_478
  - mainlevbuild_19
  - mainlevbuild_99
  - mainlevbuild_18
  - mainlevbuild_82
  - mainlevbuild_98
  - mainlevbuild_419
  - mainlevbuild_499
  - mainlevbuild_83
  - mainlevbuild_418
  - mainlevbuild_482
  - mainlevbuild_498
  - mainlevbuild_80
  - mainlevbuild_730
  - mainlevbuild_938
  - mainlevbuild_483
  - mainlevbuild_81
  - mainlevbuild_95
  - mainlevbuild_731
  - mainlevbuild_949
  - mainlevbuild_939
  - mainlevbuild_448
  - mainlevbuild_480
  - mainlevbuild_86
  - mainlevbuild_94
  - mainlevbuild_732
  - mainlevbuild_948
  - mainlevbuild_449
  - mainlevbuild_481
  - mainlevbuild_495
  - mainlevbuild_87
  - mainlevbuild_97
  - mainlevbuild_733
  - mainlevbuild_723
  - mainlevbuild_486
  - mainlevbuild_494
  - mainlevbuild_84
  - mainlevbuild_96
  - mainlevbuild_734
  - mainlevbuild_722
  - mainlevbuild_950
  - mainlevbuild_487
  - mainlevbuild_497
  - mainlevbuild_85
  - mainlevbuild_91
  - mainlevbuild_735
  - mainlevbuild_721
  - mainlevbuild_745
  - mainlevbuild_951
  - mainlevbuild_929
  - mainlevbuild_484
  - mainlevbuild_496
  - mainlevbuild_90
  - mainlevbuild_736
  - mainlevbuild_720
  - mainlevbuild_716
  - mainlevbuild_744
  - mainlevbuild_952
  - mainlevbuild_932
  - mainlevbuild_928
  - mainlevbuild_485
  - mainlevbuild_491
  - mainlevbuild_93
  - mainlevbuild_737
  - mainlevbuild_727
  - mainlevbuild_717
  - mainlevbuild_747
  - mainlevbuild_953
  - mainlevbuild_943
  - mainlevbuild_933
  - mainlevbuild_490
  - mainlevbuild_92
  - mainlevbuild_738
  - mainlevbuild_726
  - mainlevbuild_714
  - mainlevbuild_746
  - mainlevbuild_954
  - mainlevbuild_942
  - mainlevbuild_930
  - mainlevbuild_493
  - mainlevbuild_739
  - mainlevbuild_725
  - mainlevbuild_715
  - mainlevbuild_709
  - mainlevbuild_741
  - mainlevbuild_955
  - mainlevbuild_941
  - mainlevbuild_931
  - mainlevbuild_925
  - mainlevbuild_492
  - mainlevbuild_724
  - mainlevbuild_712
  - mainlevbuild_708
  - mainlevbuild_740
  - mainlevbuild_956
  - mainlevbuild_940
  - mainlevbuild_936
  - mainlevbuild_924
  - mainlevbuild_713
  - mainlevbuild_743
  - mainlevbuild_947
  - mainlevbuild_937
  - mainlevbuild_927
  - mainlevbuild_710
  - mainlevbuild_742
  - mainlevbuild_946
  - mainlevbuild_934
  - mainlevbuild_926
  - mainlevbuild_729
  - mainlevbuild_711
  - mainlevbuild_945
  - mainlevbuild_935
  - mainlevbuild_921
  - mainlevbuild_886
  - mainlevbuild_728
  - mainlevbuild_944
  - mainlevbuild_920
  - mainlevbuild_887
  - mainlevbuild_923
  - mainlevbuild_884
  - mainlevbuild_828
  - mainlevbuild_922
  - mainlevbuild_143
  - mainlevbuild_885
  - mainlevbuild_899
  - mainlevbuild_701
  - mainlevbuild_829
  - mainlevbuild_749
  - mainlevbuild_142
  - mainlevbuild_882
  - mainlevbuild_898
  - mainlevbuild_700
  - mainlevbuild_748
  - mainlevbuild_141
  - mainlevbuild_883
  - mainlevbuild_703
  - mainlevbuild_140
  - mainlevbuild_176
  - mainlevbuild_880
  - mainlevbuild_718
  - mainlevbuild_702
  - mainlevbuild_798
  - mainlevbuild_147
  - mainlevbuild_177
  - mainlevbuild_881
  - mainlevbuild_719
  - mainlevbuild_705
  - mainlevbuild_839
  - mainlevbuild_799
  - mainlevbuild_146
  - mainlevbuild_174
  - mainlevbuild_704
  - mainlevbuild_838
  - mainlevbuild_796
  - mainlevbuild_613
  - mainlevbuild_145
  - mainlevbuild_175
  - mainlevbuild_169
  - mainlevbuild_707
  - mainlevbuild_797
  - mainlevbuild_612
  - mainlevbuild_144
  - mainlevbuild_172
  - mainlevbuild_168
  - mainlevbuild_706
  - mainlevbuild_820
  - mainlevbuild_794
  - mainlevbuild_611
  - mainlevbuild_173
  - mainlevbuild_891
  - mainlevbuild_821
  - mainlevbuild_795
  - mainlevbuild_859
  - mainlevbuild_610
  - mainlevbuild_626
  - mainlevbuild_170
  - mainlevbuild_890
  - mainlevbuild_822
  - mainlevbuild_792
  - mainlevbuild_858
  - mainlevbuild_617
  - mainlevbuild_627
  - mainlevbuild_149
  - mainlevbuild_171
  - mainlevbuild_893
  - mainlevbuild_823
  - mainlevbuild_833
  - mainlevbuild_793
  - mainlevbuild_616
  - mainlevbuild_624
  - mainlevbuild_688
  - mainlevbuild_148
  - mainlevbuild_888
  - mainlevbuild_892
  - mainlevbuild_824
  - mainlevbuild_832
  - mainlevbuild_808
  - mainlevbuild_790
  - mainlevbuild_615
  - mainlevbuild_625
  - mainlevbuild_639
  - mainlevbuild_689
  - mainlevbuild_889
  - mainlevbuild_895
  - mainlevbuild_825
  - mainlevbuild_831
  - mainlevbuild_809
  - mainlevbuild_791
  - mainlevbuild_855
  - mainlevbuild_614
  - mainlevbuild_622
  - mainlevbuild_638
  - mainlevbuild_118
  - mainlevbuild_894
  - mainlevbuild_826
  - mainlevbuild_830
  - mainlevbuild_806
  - mainlevbuild_854
  - mainlevbuild_623
  - mainlevbuild_161
  - mainlevbuild_119
  - mainlevbuild_897
  - mainlevbuild_827
  - mainlevbuild_837
  - mainlevbuild_807
  - mainlevbuild_857
  - mainlevbuild_620
  - mainlevbuild_160
  - mainlevbuild_896
  - mainlevbuild_836
  - mainlevbuild_804
  - mainlevbuild_856
  - mainlevbuild_619
  - mainlevbuild_621
  - mainlevbuild_699
  - mainlevbuild_163
  - mainlevbuild_835
  - mainlevbuild_805
  - mainlevbuild_851
  - mainlevbuild_618
  - mainlevbuild_698
  - mainlevbuild_178
  - mainlevbuild_162
  - mainlevbuild_114
  - mainlevbuild_834
  - mainlevbuild_802
  - mainlevbuild_850
  - mainlevbuild_179
  - mainlevbuild_165
  - mainlevbuild_115
  - mainlevbuild_803
  - mainlevbuild_853
  - mainlevbuild_648
  - mainlevbuild_680
  - mainlevbuild_164
  - mainlevbuild_116
  - mainlevbuild_800
  - mainlevbuild_852
  - mainlevbuild_631
  - mainlevbuild_649
  - mainlevbuild_681
  - mainlevbuild_167
  - mainlevbuild_117
  - mainlevbuild_801
  - mainlevbuild_630
  - mainlevbuild_682
  - mainlevbuild_166
  - mainlevbuild_110
  - mainlevbuild_633
  - mainlevbuild_683
  - mainlevbuild_693
  - mainlevbuild_111
  - mainlevbuild_628
  - mainlevbuild_632
  - mainlevbuild_644
  - mainlevbuild_684
  - mainlevbuild_692
  - mainlevbuild_112
  - mainlevbuild_629
  - mainlevbuild_635
  - mainlevbuild_645
  - mainlevbuild_685
  - mainlevbuild_691
  - mainlevbuild_113
  - mainlevbuild_634
  - mainlevbuild_646
  - mainlevbuild_686
  - mainlevbuild_690
  - mainlevbuild_637
  - mainlevbuild_647
  - mainlevbuild_687
  - mainlevbuild_697
  - mainlevbuild_636
  - mainlevbuild_640
  - mainlevbuild_696
  - mainlevbuild_641
  - mainlevbuild_695
  - mainlevbuild_642
  - mainlevbuild_694
  - mainlevbuild_643
  - mainlevbuild_385
  - mainlevbuild_384
  - mainlevbuild_387
  - mainlevbuild_386
  - mainlevbuild_378
  - mainlevbuild_381
  - mainlevbuild_379
  - mainlevbuild_380
  - mainlevbuild_383
  - mainlevbuild_382
  - mainlevbuild_318
  - mainlevbuild_369
  - mainlevbuild_319
  - mainlevbuild_368
  - mainlevbuild_370
  - mainlevbuild_389
  - mainlevbuild_371
  - mainlevbuild_309
  - mainlevbuild_388
  - mainlevbuild_372
  - mainlevbuild_312
  - mainlevbuild_308
  - mainlevbuild_373
  - mainlevbuild_363
  - mainlevbuild_313
  - mainlevbuild_374
  - mainlevbuild_362
  - mainlevbuild_358
  - mainlevbuild_310
  - mainlevbuild_375
  - mainlevbuild_361
  - mainlevbuild_359
  - mainlevbuild_311
  - mainlevbuild_305
  - mainlevbuild_376
  - mainlevbuild_360
  - mainlevbuild_356
  - mainlevbuild_316
  - mainlevbuild_304
  - mainlevbuild_377
  - mainlevbuild_367
  - mainlevbuild_357
  - mainlevbuild_317
  - mainlevbuild_307
  - mainlevbuild_366
  - mainlevbuild_354
  - mainlevbuild_314
  - mainlevbuild_306
  - mainlevbuild_365
  - mainlevbuild_355
  - mainlevbuild_315
  - mainlevbuild_301
  - mainlevbuild_364
  - mainlevbuild_352
  - mainlevbuild_300
  - mainlevbuild_353
  - mainlevbuild_303
  - mainlevbuild_248
  - mainlevbuild_350
  - mainlevbuild_302
  - mainlevbuild_249
  - mainlevbuild_351
  - mainlevbuild_259
  - mainlevbuild_258
  - mainlevbuild_288
  - mainlevbuild_240
  - mainlevbuild_289
  - mainlevbuild_241
  - mainlevbuild_239
  - mainlevbuild_242
  - mainlevbuild_238
  - mainlevbuild_243
  - mainlevbuild_253
  - mainlevbuild_284
  - mainlevbuild_244
  - mainlevbuild_252
  - mainlevbuild_268
  - mainlevbuild_521
  - mainlevbuild_285
  - mainlevbuild_245
  - mainlevbuild_251
  - mainlevbuild_269
  - mainlevbuild_235
  - mainlevbuild_520
  - mainlevbuild_286
  - mainlevbuild_246
  - mainlevbuild_250
  - mainlevbuild_266
  - mainlevbuild_234
  - mainlevbuild_523
  - mainlevbuild_287
  - mainlevbuild_247
  - mainlevbuild_257
  - mainlevbuild_267
  - mainlevbuild_237
  - mainlevbuild_522
  - mainlevbuild_280
  - mainlevbuild_256
  - mainlevbuild_264
  - mainlevbuild_236
  - mainlevbuild_525
  - mainlevbuild_281
  - mainlevbuild_255
  - mainlevbuild_265
  - mainlevbuild_231
  - mainlevbuild_524
  - mainlevbuild_282
  - mainlevbuild_254
  - mainlevbuild_262
  - mainlevbuild_230
  - mainlevbuild_527
  - mainlevbuild_283
  - mainlevbuild_263
  - mainlevbuild_233
  - mainlevbuild_526
  - mainlevbuild_260
  - mainlevbuild_232
  - mainlevbuild_529
  - mainlevbuild_261
  - mainlevbuild_528
  - mainlevbuild_509
  - mainlevbuild_508
  - mainlevbuild_503
  - mainlevbuild_502
  - mainlevbuild_538
  - mainlevbuild_501
  - mainlevbuild_539
  - mainlevbuild_500
  - mainlevbuild_536
  - mainlevbuild_507
  - mainlevbuild_537
  - mainlevbuild_46
  - mainlevbuild_506
  - mainlevbuild_534
  - mainlevbuild_47
  - mainlevbuild_505
  - mainlevbuild_535
  - mainlevbuild_44
  - mainlevbuild_504
  - mainlevbuild_532
  - mainlevbuild_45
  - mainlevbuild_59
  - mainlevbuild_533
  - mainlevbuild_42
  - mainlevbuild_58
  - mainlevbuild_530
  - mainlevbuild_459
  - mainlevbuild_43
  - mainlevbuild_531
  - mainlevbuild_458
  - mainlevbuild_40
  - mainlevbuild_914
  - mainlevbuild_41
  - mainlevbuild_915
  - mainlevbuild_916
  - mainlevbuild_917
  - mainlevbuild_907
  - mainlevbuild_28
  - mainlevbuild_910
  - mainlevbuild_906
  - mainlevbuild_51
  - mainlevbuild_29
  - mainlevbuild_911
  - mainlevbuild_905
  - mainlevbuild_428
  - mainlevbuild_50
  - mainlevbuild_912
  - mainlevbuild_904
  - mainlevbuild_451
  - mainlevbuild_429
  - mainlevbuild_53
  - mainlevbuild_913
  - mainlevbuild_903
  - mainlevbuild_450
  - mainlevbuild_48
  - mainlevbuild_52
  - mainlevbuild_24
  - mainlevbuild_902
  - mainlevbuild_453
  - mainlevbuild_49
  - mainlevbuild_55
  - mainlevbuild_25
  - mainlevbuild_39
  - mainlevbuild_781
  - mainlevbuild_901
  - mainlevbuild_452
  - mainlevbuild_424
  - mainlevbuild_54
  - mainlevbuild_26
  - mainlevbuild_38
  - mainlevbuild_752
  - mainlevbuild_780
  - mainlevbuild_900
  - mainlevbuild_455
  - mainlevbuild_425
  - mainlevbuild_439
  - mainlevbuild_57
  - mainlevbuild_27
  - mainlevbuild_37
  - mainlevbuild_753
  - mainlevbuild_783
  - mainlevbuild_454
  - mainlevbuild_426
  - mainlevbuild_438
  - mainlevbuild_56
  - mainlevbuild_20
  - mainlevbuild_36
  - mainlevbuild_750
  - mainlevbuild_782
  - mainlevbuild_918
  - mainlevbuild_457
  - mainlevbuild_427
  - mainlevbuild_437
  - mainlevbuild_21
  - mainlevbuild_35
  - mainlevbuild_751
  - mainlevbuild_785
  - mainlevbuild_919
  - mainlevbuild_456
  - mainlevbuild_420
  - mainlevbuild_436
  - mainlevbuild_22
  - mainlevbuild_34
  - mainlevbuild_756
  - mainlevbuild_784
  m_Tag: New Sprite Atlas
  m_IsVariant: 0
